60.0 2.9409773e-04
70.0 2.5678630e-04
80.0 2.2180779e-04
90.0 1.8671351e-04
100.0 1.5289765e-04
110.0 1.2074969e-04
120.0 9.0813402e-05
130.0 6.3753876e-05
140.0 4.0336905e-05
150.0 2.1414491e-05
160.0 7.9131492e-06
