60.0 7.8711123e-02
70.0 7.0135811e-02
80.0 6.1720103e-02
90.0 5.2877449e-02
100.0 4.4025716e-02
110.0 3.5316264e-02
120.0 2.6949694e-02
130.0 1.9172637e-02
140.0 1.2274415e-02
150.0 6.5819204e-03
160.0 2.4514219e-03
