60.0 2.0890927e-03
70.0 1.8067177e-03
80.0 1.5509003e-03
90.0 1.2967341e-03
100.0 1.0556758e-03
110.0 8.2940519e-04
120.0 6.2087854e-04
130.0 4.3401538e-04
140.0 2.7350033e-04
150.0 1.4464034e-04
160.0 5.3245856e-05
