60.0 2.0320095e-04
70.0 1.7637411e-04
80.0 1.5169141e-04
90.0 1.2711477e-04
100.0 1.0367096e-04
110.0 8.1572290e-05
120.0 6.1143136e-05
130.0 4.2792880e-05
140.0 2.6999269e-05
150.0 1.4297332e-05
160.0 5.2711725e-06
