60.0 3.1138887e-01
70.0 2.9406889e-01
80.0 2.7420186e-01
90.0 2.5064295e-01
100.0 2.2351293e-01
110.0 1.9269389e-01
120.0 1.5839757e-01
130.0 1.2142658e-01
140.0 8.3530198e-02
150.0 4.7779423e-02
160.0 1.8736234e-02
