60.0 3.5792652e-03
70.0 3.1207045e-03
80.0 2.7013289e-03
90.0 2.2785644e-03
100.0 1.8715640e-03
110.0 1.4834214e-03
120.0 1.1199118e-03
130.0 7.8903595e-04
140.0 5.0068280e-04
150.0 2.6629037e-04
160.0 9.8423470e-05
