60.0 1.1917080e-03
70.0 1.0325974e-03
80.0 8.8850699e-04
90.0 7.4481296e-04
100.0 6.0801664e-04
110.0 4.7902794e-04
120.0 3.5956646e-04
130.0 2.5198256e-04
140.0 1.5913723e-04
150.0 8.4303412e-05
160.0 3.1067805e-05
