60.0 1.1054501e-05
70.0 9.5586809e-06
80.0 8.1983156e-06
90.0 6.8504774e-06
100.0 5.5728552e-06
110.0 4.3748993e-06
120.0 3.2724205e-06
130.0 2.2859548e-06
140.0 1.4397694e-06
150.0 7.6121076e-07
160.0 2.8023764e-07
