60.0 4.7490487e-03
70.0 4.1849836e-03
80.0 3.6400866e-03
90.0 3.0842496e-03
100.0 2.5400444e-03
110.0 2.0160496e-03
120.0 1.5230182e-03
130.0 1.0735180e-03
140.0 6.8169898e-04
150.0 3.6311970e-04
160.0 1.3459463e-04
