60.0 2.2409106e-03
70.0 2.0676492e-03
80.0 1.8930499e-03
90.0 1.6999668e-03
100.0 1.4917676e-03
110.0 1.2671396e-03
120.0 1.0272882e-03
130.0 7.7734249e-04
140.0 5.2827285e-04
150.0 2.9880496e-04
160.0 1.1600933e-04
