60.0 9.1127601e-03
70.0 8.4169748e-03
80.0 7.7174607e-03
90.0 6.9419608e-03
100.0 6.1039571e-03
110.0 5.1968453e-03
120.0 4.2241097e-03
130.0 3.2053160e-03
140.0 2.1845055e-03
150.0 1.2388759e-03
160.0 4.8197625e-04
