60.0 4.4156923e-02
70.0 3.9108805e-02
80.0 3.4217042e-02
90.0 2.9141425e-02
100.0 2.4121898e-02
110.0 1.9240509e-02
120.0 1.4603250e-02
130.0 1.0337262e-02
140.0 6.5886171e-03
150.0 3.5199338e-03
160.0 1.3073481e-03
