60.0 2.3581165e-02
70.0 2.0657158e-02
80.0 1.7942702e-02
90.0 1.5181269e-02
100.0 1.2501534e-02
110.0 9.9303201e-03
120.0 7.5108883e-03
130.0 5.3004711e-03
140.0 3.3683728e-03
150.0 1.7939379e-03
160.0 6.6393085e-04
