60.0 2.7859010e-03
70.0 2.4208901e-03
80.0 2.0877380e-03
90.0 1.7541453e-03
100.0 1.4350141e-03
110.0 1.1328052e-03
120.0 8.5185296e-04
130.0 5.9797927e-04
140.0 3.7822917e-04
150.0 2.0064533e-04
160.0 7.4032382e-05
