60.0 7.7736445e-02
70.0 6.9233132e-02
80.0 6.0901144e-02
90.0 5.2153262e-02
100.0 4.3404871e-02
110.0 3.4804567e-02
120.0 2.6549336e-02
130.0 1.8881231e-02
140.0 1.2083987e-02
150.0 6.4779575e-03
160.0 2.4121143e-03
