60.0 1.9496949e-03
70.0 1.6958680e-03
80.0 1.4651541e-03
90.0 1.2333723e-03
100.0 1.0111534e-03
110.0 8.0002403e-04
120.0 6.0296834e-04
130.0 4.2415955e-04
140.0 2.6876552e-04
150.0 1.4276156e-04
160.0 5.2708188e-05
