60.0 2.4468637e-02
70.0 2.1465438e-02
80.0 1.8666811e-02
90.0 1.5813929e-02
100.0 1.3038251e-02
110.0 1.0368592e-02
120.0 7.8509589e-03
130.0 5.5461394e-03
140.0 3.5278075e-03
150.0 1.8804235e-03
160.0 6.9643383e-04
