60.0 1.6513120e-06
70.0 1.4602325e-06
80.0 1.2733338e-06
90.0 1.0825359e-06
100.0 8.9448571e-07
110.0 7.1225503e-07
120.0 5.3973804e-07
130.0 3.8154400e-07
140.0 2.4292146e-07
150.0 1.2968910e-07
160.0 4.8157264e-08
