60.0 2.0759608e-02
70.0 1.8344037e-02
80.0 1.6005641e-02
90.0 1.3597055e-02
100.0 1.1226330e-02
110.0 8.9320884e-03
120.0 6.7631298e-03
130.0 4.7770010e-03
140.0 3.0389801e-03
150.0 1.6211757e-03
160.0 6.0155623e-04
