60.0 8.6514364e-05
70.0 7.6241947e-05
80.0 6.6342348e-05
90.0 5.6278603e-05
100.0 4.6418802e-05
110.0 3.6906244e-05
120.0 2.7930710e-05
130.0 1.9721564e-05
140.0 1.2542946e-05
150.0 6.6894692e-06
160.0 2.4814298e-06
