60.0 9.6258579e-04
70.0 8.4273580e-04
80.0 7.3121593e-04
90.0 6.1843392e-04
100.0 5.0910739e-04
110.0 4.0430179e-04
120.0 3.0575458e-04
130.0 2.1576919e-04
140.0 1.3713745e-04
150.0 7.3061246e-05
160.0 2.7054842e-05
