60.0 7.6933767e-05
70.0 6.7772724e-05
80.0 5.8877477e-05
90.0 4.9855304e-05
100.0 4.1029187e-05
110.0 3.2540679e-05
120.0 2.4564467e-05
130.0 1.7302596e-05
140.0 1.0980896e-05
150.0 5.8465992e-06
160.0 2.1665942e-06
