60.0 2.1971491e-03
70.0 1.9028772e-03
80.0 1.6351940e-03
90.0 1.3687648e-03
100.0 1.1154718e-03
110.0 8.7722141e-04
120.0 6.5725180e-04
130.0 4.5981519e-04
140.0 2.8997479e-04
150.0 1.5345706e-04
160.0 5.6525964e-05
