60.0 3.5505401e-01
70.0 3.3602571e-01
80.0 3.1402655e-01
90.0 2.8773080e-01
100.0 2.5724376e-01
110.0 2.2238496e-01
120.0 1.8334168e-01
130.0 1.4098028e-01
140.0 9.7279998e-02
150.0 5.5804048e-02
160.0 2.1934183e-02
