60.0 7.2337092e-04
70.0 6.2798210e-04
80.0 5.4116821e-04
90.0 4.5438734e-04
100.0 3.7150226e-04
110.0 2.9311397e-04
120.0 2.2031649e-04
130.0 1.5459307e-04
140.0 9.7745644e-05
150.0 5.1835130e-05
160.0 1.9119730e-05
