60.0 2.0488005e-03
70.0 1.7855145e-03
80.0 1.5450501e-03
90.0 1.3028373e-03
100.0 1.0698326e-03
110.0 8.4775904e-04
120.0 6.3988223e-04
130.0 4.5074482e-04
140.0 2.8597112e-04
150.0 1.5207124e-04
160.0 5.6198929e-05
