60.0 2.2748140e-03
70.0 2.0992258e-03
80.0 1.9226643e-03
90.0 1.7273524e-03
100.0 1.5167147e-03
110.0 1.2892846e-03
120.0 1.0461417e-03
130.0 7.9235940e-04
140.0 5.3900282e-04
150.0 3.0514899e-04
160.0 1.1855396e-04
