60.0 7.6999772e-07
70.0 6.7885592e-07
80.0 5.9017021e-07
90.0 5.0012475e-07
100.0 4.1190048e-07
110.0 3.2692508e-07
120.0 2.4696521e-07
130.0 1.7407021e-07
140.0 1.1053654e-07
150.0 5.8882697e-08
160.0 2.1828799e-08
