 Number of entries in chain = 46265
-> 0 / 46265 entries processed. 
-> 10000 / 46265 entries processed. 
-> 20000 / 46265 entries processed. 
-> 30000 / 46265 entries processed. 
-> 40000 / 46265 entries processed. 
FCNC_Analysis::summaryYields: Cannot retrieve 'cutFlow_unWeight'
Yield summary: 
c1lep10jin2bex_el_meff: 4.33265e-06
c1lep10jin2bex_meff: 1.06497e-05
c1lep10jin2bex_mu_meff: 6.31702e-06
c1lep10jin3bex_el_meff: 3.19112e-06
c1lep10jin3bex_meff: 9.67748e-06
c1lep10jin3bex_mu_meff: 6.48636e-06
c1lep10jin4bin_el_meff: 0
c1lep10jin4bin_meff: 0
c1lep10jin4bin_mu_meff: 0
c1lep4jex2bex_el_meff: 0.00225893
c1lep4jex2bex_meff: 0.00431535
c1lep4jex2bex_mu_meff: 0.00205642
c1lep4jex3bex_el_meff: 7.33828e-05
c1lep4jex3bex_meff: 0.000108222
c1lep4jex3bex_mu_meff: 3.48394e-05
c1lep4jex4bin_el_meff: 0
c1lep4jex4bin_meff: 0
c1lep4jex4bin_mu_meff: 0
c1lep4jin2bex_el_meff: 0.00618436
c1lep4jin2bex_meff: 0.0120411
c1lep4jin2bex_mu_meff: 0.00585678
c1lep4jin2bin_el_meff: 0.00648501
c1lep4jin2bin_meff: 0.0125881
c1lep4jin2bin_mu_meff: 0.00610313
c1lep4jin3bin_el_meff: 0.000300653
c1lep4jin3bin_meff: 0.000547002
c1lep4jin3bin_mu_meff: 0.000246349
c1lep5jex2bex_el_meff: 0.00206254
c1lep5jex2bex_meff: 0.00414686
c1lep5jex2bex_mu_meff: 0.00208432
c1lep5jex3bex_el_meff: 8.43517e-05
c1lep5jex3bex_meff: 0.000178351
c1lep5jex3bex_mu_meff: 9.39994e-05
c1lep5jex4bin_el_meff: 5.4135e-06
c1lep5jex4bin_meff: 5.4135e-06
c1lep5jex4bin_mu_meff: 0
c1lep6jin2bex_el_meff: 0.00186289
c1lep6jin2bex_meff: 0.00357893
c1lep6jin2bex_mu_meff: 0.00171604
c1lep6jin3bex_el_meff: 0.000115261
c1lep6jin3bex_meff: 0.000218099
c1lep6jin3bex_mu_meff: 0.000102838
c1lep6jin4bin_el_meff: 2.22445e-05
c1lep6jin4bin_meff: 3.69167e-05
c1lep6jin4bin_mu_meff: 1.46722e-05

------------------------------------------------------- 
| CutFlow Information for Cut-Flow
------------------------------------------------------- 
| Applied Cut     | # Events   | Eff.[%] | Rel.Eff[%] | 
------------------------------------------------------- 
| All             | 5001       | 100     | 100        |
| OneMu           | 2455       | 49.09   | 49.09      |
| OneEl           | 2546       | 50.90   | 103.7      |
| OneLep          | 5001       | 100     | 196.4      |
| MET-MTW         | 0          | 0       | 0          |
| FourJets        | 5001       | 100     | 10000      |
-------------------------------------------------------