#
#
# Path to files: /nfs/atlas-data07/lvalery/VLQFiles/MBJ-2.4.28-4/
# Date: 2017_03_18_0925
# Histogram used to normalize: cut_flow
#
#
410000. 49386600.0 451.65753173828125
407009. 6.794234174299504 19.068283081054688
407010. 1.3420399779341778 2.665728807449341
407011. 0.3385143843432843 0.47023242712020874
407012. 2.686970852510626 7.669803619384766
410001. 19953000.0 451.65252685546875
410002. 19816000.0 451.65008544921875
410003. 17006598.0 451.6519470214844
410004. 28991000.0 450.9241638183594
407029. 7.598096208401444 21.54128074645996
407030. 1.5032858895758636 3.296496629714966
407031. 0.376795892186351 0.6237021684646606
407032. 2.990451800689243 7.852409839630127
407033. 5.657455204348935 17.94818878173828
407034. 1.1880310752206924 2.265615224838257
407035. 0.29718867003157357 0.36635056138038635
407036. 2.389998568053443 7.585565567016602
407037. 9420394.0 17.476268768310547
407038. 1877690.0 2.427273750305176
407039. 470610.0 0.42517194151878357
407040. 3720588.0 6.4605913162231445
