user.prose.410000.PowhegPythiaEvtGen.DAOD_TOPQ1.e3698_s2608_s2183_r7725_r7676_p2669.HtX4Tops_00-00-11_out.root/
user.prose.410002.PowhegPythiaEvtGen.DAOD_TOPQ1.e3783_s2608_r7725_r7676_p2669.HtX4Tops_00-00-11_out.root/
user.prose.410003.aMcAtNloHerwigppEvtGen.DAOD_TOPQ1.e4441_s2726_r7772_r7676_p2669.HtX4Tops_00-00-11_out.root/
user.prose.410120.PowhegPythiaEvtGen.DAOD_TOPQ1.e4373_s2608_r7725_r7676_p2669.HtX4Tops_00-00-11_out.root/
user.prose.407009.PowhegPythiaEvtGen.DAOD_TOPQ1.e4023_s2608_r7725_r7676_p2669.HtX4Tops_00-00-11_out.root/
user.prose.407010.PowhegPythiaEvtGen.DAOD_TOPQ1.e4023_s2608_r7725_r7676_p2669.HtX4Tops_00-00-11_out.root/
user.prose.407011.PowhegPythiaEvtGen.DAOD_TOPQ1.e4023_s2608_r7725_r7676_p2669.HtX4Tops_00-00-11_out.root/
user.prose.407012.PowhegPythiaEvtGen.DAOD_TOPQ1.e4023_s2608_r7725_r7676_p2669.HtX4Tops_00-00-11_out.root/
user.prose.410011.PowhegPythiaEvtGen.DAOD_TOPQ1.e3824_s2608_s2183_r7725_r7676_p2669.HtX4Tops_00-00-11_out.root/
user.prose.410012.PowhegPythiaEvtGen.DAOD_TOPQ1.e3824_s2608_s2183_r7725_r7676_p2669.HtX4Tops_00-00-11_out.root/
user.prose.410013.PowhegPythiaEvtGen.DAOD_TOPQ1.e3753_s2608_s2183_r7725_r7676_p2669.HtX4Tops_00-00-11_out.root/
user.prose.410014.PowhegPythiaEvtGen.DAOD_TOPQ1.e3753_s2608_s2183_r7725_r7676_p2669.HtX4Tops_00-00-11_out.root/
user.prose.410015.PowhegPythiaEvtGen.DAOD_TOPQ1.e3753_s2608_s2183_r7725_r7676_p2669.HtX4Tops_00-00-11_out.root/
user.prose.410016.PowhegPythiaEvtGen.DAOD_TOPQ1.e3753_s2608_s2183_r7725_r7676_p2669.HtX4Tops_00-00-11_out.root/
user.prose.410025.PowhegPythiaEvtGen.DAOD_TOPQ1.e3998_s2608_s2183_r7725_r7676_p2669.HtX4Tops_00-00-11_out.root/
user.prose.410026.PowhegPythiaEvtGen.DAOD_TOPQ1.e3998_s2608_s2183_r7725_r7676_p2669.HtX4Tops_00-00-11_out.root/
user.prose.410066.MadGraphPythia8EvtGen.DAOD_TOPQ1.e4111_s2608_s2183_r7725_r7676_p2669.HtX4Tops_00-00-11_out.root/
user.prose.410067.MadGraphPythia8EvtGen.DAOD_TOPQ1.e4111_s2608_s2183_r7725_r7676_p2669.HtX4Tops_00-00-11_out.root/
user.prose.410068.MadGraphPythia8EvtGen.DAOD_TOPQ1.e4111_s2608_s2183_r7725_r7676_p2669.HtX4Tops_00-00-11_out.root/
user.prose.410073.MadGraphPythia8EvtGen.DAOD_TOPQ1.e4631_s2726_r7725_r7676_p2669.HtX4Tops_00-00-11_out.root/
user.prose.410074.MadGraphPythia8EvtGen.DAOD_TOPQ1.e4631_s2726_r7725_r7676_p2669.HtX4Tops_00-00-11_out.root/
user.prose.410075.MadGraphPythia8EvtGen.DAOD_TOPQ1.e4631_s2726_r7725_r7676_p2669.HtX4Tops_00-00-11_out.root/
user.prose.410080.MadGraphPythia8EvtGen.DAOD_TOPQ1.e4111_s2608_s2183_r7725_r7676_p2669.HtX4Tops_00-00-11_out.root/
user.prose.410081.MadGraphPythia8EvtGen.DAOD_TOPQ1.e4111_s2608_s2183_r7725_r7676_p2669.HtX4Tops_00-00-11_out.root/
user.prose.410111.MadGraphPythia8EvtGen.DAOD_TOPQ1.e4632_s2726_r7725_r7676_p2669.HtX4Tops_00-00-11_out.root/
user.prose.410112.MadGraphPythia8EvtGen.DAOD_TOPQ1.e4632_s2726_r7725_r7676_p2669.HtX4Tops_00-00-11_out.root/
user.prose.410113.MadGraphPythia8EvtGen.DAOD_TOPQ1.e4632_s2726_r7725_r7676_p2669.HtX4Tops_00-00-11_out.root/
user.prose.410115.MadGraphPythia8EvtGen.DAOD_TOPQ1.e4632_s2726_r7725_r7676_p2669.HtX4Tops_00-00-11_out.root/
user.prose.410114.MadGraphPythia8EvtGen.DAOD_TOPQ1.e4632_s2726_r7725_r7676_p2669.HtX4Tops_00-00-11_out.root/
user.prose.410116.MadGraphPythia8EvtGen.DAOD_TOPQ1.e4632_s2726_r7725_r7676_p2669.HtX4Tops_00-00-11_out.root/
user.prose.343365.aMcAtNloPythia8EvtGen.DAOD_TOPQ1.e4706_s2726_r7772_r7676_p2669.HtX4Tops_00-00-11_out.root/
user.prose.343366.aMcAtNloPythia8EvtGen.DAOD_TOPQ1.e4706_s2726_r7772_r7676_p2669.HtX4Tops_00-00-11_out.root/
user.prose.343367.aMcAtNloPythia8EvtGen.DAOD_TOPQ1.e4706_s2726_r7772_r7676_p2669.HtX4Tops_00-00-11_out.root/
user.prose.363331.Sherpa.DAOD_TOPQ1.e4709_s2726_r7725_r7676_p2669.HtX4Tops_00-00-11_out.root/
user.prose.363334.Sherpa.DAOD_TOPQ1.e4709_s2726_r7725_r7676_p2669.HtX4Tops_00-00-11_out.root/
user.prose.363337.Sherpa.DAOD_TOPQ1.e4709_s2726_r7725_r7676_p2669.HtX4Tops_00-00-11_out.root/
user.prose.363340.Sherpa.DAOD_TOPQ1.e4709_s2726_r7725_r7676_p2669.HtX4Tops_00-00-11_out.root/
user.prose.363343.Sherpa.DAOD_TOPQ1.e4709_s2726_r7725_r7676_p2669.HtX4Tops_00-00-11_out.root/
user.prose.363346.Sherpa.DAOD_TOPQ1.e4709_s2726_r7725_r7676_p2669.HtX4Tops_00-00-11_out.root/
user.prose.363349.Sherpa.DAOD_TOPQ1.e4709_s2726_r7725_r7676_p2669.HtX4Tops_00-00-11_out.root/
user.prose.363352.Sherpa.DAOD_TOPQ1.e4709_s2726_r7725_r7676_p2669.HtX4Tops_00-00-11_out.root/
user.prose.363436.Sherpa.DAOD_TOPQ1.e4715_s2726_r7725_r7676_p2669.HtX4Tops_00-00-11_out.root/
user.prose.363439.Sherpa.DAOD_TOPQ1.e4715_s2726_r7725_r7676_p2669.HtX4Tops_00-00-11_out.root/
user.prose.363442.Sherpa.DAOD_TOPQ1.e4715_s2726_r7725_r7676_p2669.HtX4Tops_00-00-11_out.root/
user.prose.363445.Sherpa.DAOD_TOPQ1.e4715_s2726_r7725_r7676_p2669.HtX4Tops_00-00-11_out.root/
user.prose.363448.Sherpa.DAOD_TOPQ1.e4715_s2726_r7725_r7676_p2669.HtX4Tops_00-00-11_out.root/
user.prose.363451.Sherpa.DAOD_TOPQ1.e4715_s2726_r7725_r7676_p2669.HtX4Tops_00-00-11_out.root/
user.prose.363454.Sherpa.DAOD_TOPQ1.e4715_s2726_r7725_r7676_p2669.HtX4Tops_00-00-11_out.root/
user.prose.363457.Sherpa.DAOD_TOPQ1.e4715_s2726_r7725_r7676_p2669.HtX4Tops_00-00-11_out.root/
user.prose.363460.Sherpa.DAOD_TOPQ1.e4715_s2726_r7725_r7676_p2669.HtX4Tops_00-00-11_out.root/
user.prose.363463.Sherpa.DAOD_TOPQ1.e4715_s2726_r7725_r7676_p2669.HtX4Tops_00-00-11_out.root/
user.prose.363466.Sherpa.DAOD_TOPQ1.e4715_s2726_r7725_r7676_p2669.HtX4Tops_00-00-11_out.root/
user.prose.363469.Sherpa.DAOD_TOPQ1.e4715_s2726_r7725_r7676_p2669.HtX4Tops_00-00-11_out.root/
user.prose.363472.Sherpa.DAOD_TOPQ1.e4715_s2726_r7725_r7676_p2669.HtX4Tops_00-00-11_out.root/
user.prose.363475.Sherpa.DAOD_TOPQ1.e4715_s2726_r7725_r7676_p2669.HtX4Tops_00-00-11_out.root/
user.prose.363478.Sherpa.DAOD_TOPQ1.e4715_s2726_r7725_r7676_p2669.HtX4Tops_00-00-11_out.root/
user.prose.363481.Sherpa.DAOD_TOPQ1.e4715_s2726_r7725_r7676_p2669.HtX4Tops_00-00-11_out.root/
user.prose.363332.Sherpa.DAOD_TOPQ1.e4709_s2726_r7725_r7676_p2669.HtX4Tops_00-00-11_out.root/
user.prose.363335.Sherpa.DAOD_TOPQ1.e4709_s2726_r7725_r7676_p2669.HtX4Tops_00-00-11_out.root/
user.prose.363338.Sherpa.DAOD_TOPQ1.e4709_s2726_r7725_r7676_p2669.HtX4Tops_00-00-11_out.root/
user.prose.363341.Sherpa.DAOD_TOPQ1.e4779_s2726_r7725_r7676_p2669.HtX4Tops_00-00-11_out.root/
user.prose.363344.Sherpa.DAOD_TOPQ1.e4709_s2726_r7725_r7676_p2669.HtX4Tops_00-00-11_out.root/
user.prose.363347.Sherpa.DAOD_TOPQ1.e4709_s2726_r7725_r7676_p2669.HtX4Tops_00-00-11_out.root/
user.prose.363350.Sherpa.DAOD_TOPQ1.e4709_s2726_r7725_r7676_p2669.HtX4Tops_00-00-11_out.root/
user.prose.363353.Sherpa.DAOD_TOPQ1.e4709_s2726_r7725_r7676_p2669.HtX4Tops_00-00-11_out.root/
user.prose.363437.Sherpa.DAOD_TOPQ1.e4715_s2726_r7725_r7676_p2669.HtX4Tops_00-00-11_out.root/
user.prose.363440.Sherpa.DAOD_TOPQ1.e4715_s2726_r7725_r7676_p2669.HtX4Tops_00-00-11_out.root/
user.prose.363443.Sherpa.DAOD_TOPQ1.e4715_s2726_r7725_r7676_p2669.HtX4Tops_00-00-11_out.root/
user.prose.363446.Sherpa.DAOD_TOPQ1.e4715_s2726_r7725_r7676_p2669.HtX4Tops_00-00-11_out.root/
user.prose.363449.Sherpa.DAOD_TOPQ1.e4715_s2726_r7725_r7676_p2669.HtX4Tops_00-00-11_out.root/
user.prose.363452.Sherpa.DAOD_TOPQ1.e4715_s2726_r7725_r7676_p2669.HtX4Tops_00-00-11_out.root/
user.prose.363455.Sherpa.DAOD_TOPQ1.e4715_s2726_r7725_r7676_p2669.HtX4Tops_00-00-11_out.root/
user.prose.363458.Sherpa.DAOD_TOPQ1.e4715_s2726_r7725_r7676_p2669.HtX4Tops_00-00-11_out.root/
user.prose.363461.Sherpa.DAOD_TOPQ1.e4715_s2726_r7725_r7676_p2669.HtX4Tops_00-00-11_out.root/
user.prose.363464.Sherpa.DAOD_TOPQ1.e4715_s2726_r7725_r7676_p2669.HtX4Tops_00-00-11_out.root/
user.prose.363467.Sherpa.DAOD_TOPQ1.e4715_s2726_r7725_r7676_p2669.HtX4Tops_00-00-11_out.root/
user.prose.363470.Sherpa.DAOD_TOPQ1.e4715_s2726_r7725_r7676_p2669.HtX4Tops_00-00-11_out.root/
user.prose.363473.Sherpa.DAOD_TOPQ1.e4715_s2726_r7725_r7676_p2669.HtX4Tops_00-00-11_out.root/
user.prose.363476.Sherpa.DAOD_TOPQ1.e4715_s2726_r7725_r7676_p2669.HtX4Tops_00-00-11_out.root/
user.prose.363479.Sherpa.DAOD_TOPQ1.e4715_s2726_r7725_r7676_p2669.HtX4Tops_00-00-11_out.root/
user.prose.363482.Sherpa.DAOD_TOPQ1.e4715_s2726_r7772_r7676_p2669.HtX4Tops_00-00-11_out.root/
user.prose.363333.Sherpa.DAOD_TOPQ1.e4709_s2726_r7725_r7676_p2669.HtX4Tops_00-00-11_out.root/
user.prose.363336.Sherpa.DAOD_TOPQ1.e4779_s2726_r7725_r7676_p2669.HtX4Tops_00-00-11_out.root/
user.prose.363339.Sherpa.DAOD_TOPQ1.e4709_s2726_r7725_r7676_p2669.HtX4Tops_00-00-11_out.root/
user.prose.363342.Sherpa.DAOD_TOPQ1.e4779_s2726_r7725_r7676_p2669.HtX4Tops_00-00-11_out.root/
user.prose.363345.Sherpa.DAOD_TOPQ1.e4779_s2726_r7725_r7676_p2669.HtX4Tops_00-00-11_out.root/
user.prose.363348.Sherpa.DAOD_TOPQ1.e4779_s2726_r7725_r7676_p2669.HtX4Tops_00-00-11_out.root/
user.prose.363351.Sherpa.DAOD_TOPQ1.e4779_s2726_r7725_r7676_p2669.HtX4Tops_00-00-11_out.root/
user.prose.363354.Sherpa.DAOD_TOPQ1.e4709_s2726_r7725_r7676_p2669.HtX4Tops_00-00-11_out.root/
user.prose.363438.Sherpa.DAOD_TOPQ1.e4715_s2726_r7725_r7676_p2669.HtX4Tops_00-00-11_out.root/
user.prose.363444.Sherpa.DAOD_TOPQ1.e4715_s2726_r7725_r7676_p2669.HtX4Tops_00-00-11_out.root/
user.prose.363441.Sherpa.DAOD_TOPQ1.e4771_s2726_r7725_r7676_p2669.HtX4Tops_00-00-11_out.root/
user.prose.363447.Sherpa.DAOD_TOPQ1.e4715_s2726_r7725_r7676_p2669.HtX4Tops_00-00-11_out.root/
user.prose.363450.Sherpa.DAOD_TOPQ1.e4715_s2726_r7725_r7676_p2669.HtX4Tops_00-00-11_out.root/
user.prose.363453.Sherpa.DAOD_TOPQ1.e4715_s2726_r7725_r7676_p2669.HtX4Tops_00-00-11_out.root/
user.prose.363459.Sherpa.DAOD_TOPQ1.e4715_s2726_r7725_r7676_p2669.HtX4Tops_00-00-11_out.root/
user.prose.363456.Sherpa.DAOD_TOPQ1.e4715_s2726_r7725_r7676_p2669.HtX4Tops_00-00-11_out.root/
user.prose.363462.Sherpa.DAOD_TOPQ1.e4715_s2726_r7725_r7676_p2669.HtX4Tops_00-00-11_out.root/
user.prose.363465.Sherpa.DAOD_TOPQ1.e4715_s2726_r7725_r7676_p2669.HtX4Tops_00-00-11_out.root/
user.prose.363468.Sherpa.DAOD_TOPQ1.e4715_s2726_r7725_r7676_p2669.HtX4Tops_00-00-11_out.root/
user.prose.363471.Sherpa.DAOD_TOPQ1.e4715_s2726_r7725_r7676_p2669.HtX4Tops_00-00-11_out.root/
user.prose.363474.Sherpa.DAOD_TOPQ1.e4771_s2726_r7725_r7676_p2669.HtX4Tops_00-00-11_out.root/
user.prose.363477.Sherpa.DAOD_TOPQ1.e4715_s2726_r7725_r7676_p2669.HtX4Tops_00-00-11_out.root/
user.prose.363480.Sherpa.DAOD_TOPQ1.e4715_s2726_r7725_r7676_p2669.HtX4Tops_00-00-11_out.root/
user.prose.363483.Sherpa.DAOD_TOPQ1.e4715_s2726_r7725_r7676_p2669.HtX4Tops_00-00-11_out.root/
user.prose.363102.Sherpa.DAOD_TOPQ1.e4742_s2726_r7725_r7676_p2669.HtX4Tops_00-00-11_out.root/
user.prose.363105.Sherpa.DAOD_TOPQ1.e4666_s2726_r7725_r7676_p2669.HtX4Tops_00-00-11_out.root/
user.prose.363108.Sherpa.DAOD_TOPQ1.e4666_s2726_r7725_r7676_p2669.HtX4Tops_00-00-11_out.root/
user.prose.363111.Sherpa.DAOD_TOPQ1.e4666_s2726_r7725_r7676_p2669.HtX4Tops_00-00-11_out.root/
user.prose.363114.Sherpa.DAOD_TOPQ1.e4742_s2726_r7725_r7676_p2669.HtX4Tops_00-00-11_out.root/
user.prose.363117.Sherpa.DAOD_TOPQ1.e4666_s2726_r7725_r7676_p2669.HtX4Tops_00-00-11_out.root/
user.prose.363120.Sherpa.DAOD_TOPQ1.e4690_s2726_r7725_r7676_p2669.HtX4Tops_00-00-11_out.root/
user.prose.363361.Sherpa.DAOD_TOPQ1.e4689_s2726_r7725_r7676_p2669.HtX4Tops_00-00-11_out.root/
user.prose.363364.Sherpa.DAOD_TOPQ1.e4716_s2726_r7725_r7676_p2669.HtX4Tops_00-00-11_out.root/
user.prose.363367.Sherpa.DAOD_TOPQ1.e4716_s2726_r7725_r7676_p2669.HtX4Tops_00-00-11_out.root/
user.prose.363370.Sherpa.DAOD_TOPQ1.e4716_s2726_r7725_r7676_p2669.HtX4Tops_00-00-11_out.root/
user.prose.363373.Sherpa.DAOD_TOPQ1.e4716_s2726_r7725_r7676_p2669.HtX4Tops_00-00-11_out.root/
user.prose.363376.Sherpa.DAOD_TOPQ1.e4716_s2726_r7725_r7676_p2669.HtX4Tops_00-00-11_out.root/
user.prose.363379.Sherpa.DAOD_TOPQ1.e4716_s2726_r7725_r7676_p2669.HtX4Tops_00-00-11_out.root/
user.prose.363382.Sherpa.DAOD_TOPQ1.e4716_s2726_r7725_r7676_p2669.HtX4Tops_00-00-11_out.root/
user.prose.363385.Sherpa.DAOD_TOPQ1.e4716_s2726_r7725_r7676_p2669.HtX4Tops_00-00-11_out.root/
user.prose.363388.Sherpa.DAOD_TOPQ1.e4716_s2726_r7725_r7676_p2669.HtX4Tops_00-00-11_out.root/
user.prose.363391.Sherpa.DAOD_TOPQ1.e4716_s2726_r7725_r7676_p2669.HtX4Tops_00-00-11_out.root/
user.prose.363394.Sherpa.DAOD_TOPQ1.e4716_s2726_r7725_r7676_p2669.HtX4Tops_00-00-11_out.root/
user.prose.363397.Sherpa.DAOD_TOPQ1.e4716_s2726_r7725_r7676_p2669.HtX4Tops_00-00-11_out.root/
user.prose.363400.Sherpa.DAOD_TOPQ1.e4716_s2726_r7725_r7676_p2669.HtX4Tops_00-00-11_out.root/
user.prose.363403.Sherpa.DAOD_TOPQ1.e4716_s2726_r7725_r7676_p2669.HtX4Tops_00-00-11_out.root/
user.prose.363406.Sherpa.DAOD_TOPQ1.e4716_s2726_r7725_r7676_p2669.HtX4Tops_00-00-11_out.root/
user.prose.363409.Sherpa.DAOD_TOPQ1.e4716_s2726_r7725_r7676_p2669.HtX4Tops_00-00-11_out.root/
user.prose.363412.Sherpa.DAOD_TOPQ1.e4716_s2726_r7772_r7676_p2669.HtX4Tops_00-00-11_out.root/
user.prose.363415.Sherpa.DAOD_TOPQ1.e4716_s2726_r7772_r7676_p2669.HtX4Tops_00-00-11_out.root/
user.prose.363418.Sherpa.DAOD_TOPQ1.e4716_s2726_r7772_r7676_p2669.HtX4Tops_00-00-11_out.root/
user.prose.363421.Sherpa.DAOD_TOPQ1.e4716_s2726_r7772_r7676_p2669.HtX4Tops_00-00-11_out.root/
user.prose.363424.Sherpa.DAOD_TOPQ1.e4716_s2726_r7772_r7676_p2669.HtX4Tops_00-00-11_out.root/
user.prose.363427.Sherpa.DAOD_TOPQ1.e4716_s2726_r7772_r7676_p2669.HtX4Tops_00-00-11_out.root/
user.prose.363430.Sherpa.DAOD_TOPQ1.e4716_s2726_r7772_r7676_p2669.HtX4Tops_00-00-11_out.root/
user.prose.363433.Sherpa.DAOD_TOPQ1.e4716_s2726_r7772_r7676_p2669.HtX4Tops_00-00-11_out.root/
user.prose.363103.Sherpa.DAOD_TOPQ1.e4742_s2726_r7725_r7676_p2669.HtX4Tops_00-00-11_out.root/
user.prose.363106.Sherpa.DAOD_TOPQ1.e4666_s2726_r7725_r7676_p2669.HtX4Tops_00-00-11_out.root/
user.prose.363109.Sherpa.DAOD_TOPQ1.e4792_s2726_r7725_r7676_p2669.HtX4Tops_00-00-11_out.root/
user.prose.363112.Sherpa.DAOD_TOPQ1.e4742_s2726_r7725_r7676_p2669.HtX4Tops_00-00-11_out.root/
user.prose.363115.Sherpa.DAOD_TOPQ1.e4792_s2726_r7725_r7676_p2669.HtX4Tops_00-00-11_out.root/
user.prose.363118.Sherpa.DAOD_TOPQ1.e4666_s2726_r7725_r7676_p2669.HtX4Tops_00-00-11_out.root/
user.prose.363121.Sherpa.DAOD_TOPQ1.e4690_s2726_r7725_r7676_p2669.HtX4Tops_00-00-11_out.root/
user.prose.363362.Sherpa.DAOD_TOPQ1.e4689_s2726_r7725_r7676_p2669.HtX4Tops_00-00-11_out.root/
user.prose.363365.Sherpa.DAOD_TOPQ1.e4716_s2726_r7725_r7676_p2669.HtX4Tops_00-00-11_out.root/
user.prose.363368.Sherpa.DAOD_TOPQ1.e4716_s2726_r7725_r7676_p2669.HtX4Tops_00-00-11_out.root/
user.prose.363371.Sherpa.DAOD_TOPQ1.e4716_s2726_r7725_r7676_p2669.HtX4Tops_00-00-11_out.root/
user.prose.363374.Sherpa.DAOD_TOPQ1.e4716_s2726_r7725_r7676_p2669.HtX4Tops_00-00-11_out.root/
user.prose.363377.Sherpa.DAOD_TOPQ1.e4716_s2726_r7725_r7676_p2669.HtX4Tops_00-00-11_out.root/
user.prose.363380.Sherpa.DAOD_TOPQ1.e4716_s2726_r7725_r7676_p2669.HtX4Tops_00-00-11_out.root/
user.prose.363383.Sherpa.DAOD_TOPQ1.e4716_s2726_r7725_r7676_p2669.HtX4Tops_00-00-11_out.root/
user.prose.363386.Sherpa.DAOD_TOPQ1.e4716_s2726_r7725_r7676_p2669.HtX4Tops_00-00-11_out.root/
user.prose.363389.Sherpa.DAOD_TOPQ1.e4716_s2726_r7725_r7676_p2669.HtX4Tops_00-00-11_out.root/
user.prose.363392.Sherpa.DAOD_TOPQ1.e4772_s2726_r7725_r7676_p2669.HtX4Tops_00-00-11_out.root/
user.prose.363395.Sherpa.DAOD_TOPQ1.e4716_s2726_r7725_r7676_p2669.HtX4Tops_00-00-11_out.root/
user.prose.363398.Sherpa.DAOD_TOPQ1.e4716_s2726_r7725_r7676_p2669.HtX4Tops_00-00-11_out.root/
user.prose.363401.Sherpa.DAOD_TOPQ1.e4716_s2726_r7725_r7676_p2669.HtX4Tops_00-00-11_out.root/
user.prose.363404.Sherpa.DAOD_TOPQ1.e4716_s2726_r7725_r7676_p2669.HtX4Tops_00-00-11_out.root/
user.prose.363407.Sherpa.DAOD_TOPQ1.e4716_s2726_r7725_r7676_p2669.HtX4Tops_00-00-11_out.root/
user.prose.363410.Sherpa.DAOD_TOPQ1.e4716_s2726_r7725_r7676_p2669.HtX4Tops_00-00-11_out.root/
user.prose.363413.Sherpa.DAOD_TOPQ1.e4716_s2726_r7772_r7676_p2669.HtX4Tops_00-00-11_out.root/
user.prose.363416.Sherpa.DAOD_TOPQ1.e4716_s2726_r7772_r7676_p2669.HtX4Tops_00-00-11_out.root/
user.prose.363419.Sherpa.DAOD_TOPQ1.e4716_s2726_r7772_r7676_p2669.HtX4Tops_00-00-11_out.root/
user.prose.363422.Sherpa.DAOD_TOPQ1.e4716_s2726_r7772_r7676_p2669.HtX4Tops_00-00-11_out.root/
user.prose.363425.Sherpa.DAOD_TOPQ1.e4716_s2726_r7772_r7676_p2669.HtX4Tops_00-00-11_out.root/
user.prose.363428.Sherpa.DAOD_TOPQ1.e4716_s2726_r7772_r7676_p2669.HtX4Tops_00-00-11_out.root/
user.prose.363431.Sherpa.DAOD_TOPQ1.e4716_s2726_r7772_r7676_p2669.HtX4Tops_00-00-11_out.root/
user.prose.363434.Sherpa.DAOD_TOPQ1.e4716_s2726_r7772_r7676_p2669.HtX4Tops_00-00-11_out.root/
user.prose.363104.Sherpa.DAOD_TOPQ1.e4792_s2726_r7725_r7676_p2669.HtX4Tops_00-00-11_out.root/
user.prose.363107.Sherpa.DAOD_TOPQ1.e4742_s2726_r7725_r7676_p2669.HtX4Tops_00-00-11_out.root/
user.prose.363110.Sherpa.DAOD_TOPQ1.e4792_s2726_r7725_r7676_p2669.HtX4Tops_00-00-11_out.root/
user.prose.363113.Sherpa.DAOD_TOPQ1.e4742_s2726_r7725_r7676_p2669.HtX4Tops_00-00-11_out.root/
user.prose.363116.Sherpa.DAOD_TOPQ1.e4742_s2726_r7725_r7676_p2669.HtX4Tops_00-00-11_out.root/
user.prose.363119.Sherpa.DAOD_TOPQ1.e4666_s2726_r7725_r7676_p2669.HtX4Tops_00-00-11_out.root/
user.prose.363363.Sherpa.DAOD_TOPQ1.e4743_s2726_r7725_r7676_p2669.HtX4Tops_00-00-11_out.root/
user.prose.363366.Sherpa.DAOD_TOPQ1.e4716_s2726_r7725_r7676_p2669.HtX4Tops_00-00-11_out.root/
user.prose.363369.Sherpa.DAOD_TOPQ1.e4716_s2726_r7725_r7676_p2669.HtX4Tops_00-00-11_out.root/
user.prose.363372.Sherpa.DAOD_TOPQ1.e4716_s2726_r7725_r7676_p2669.HtX4Tops_00-00-11_out.root/
user.prose.363375.Sherpa.DAOD_TOPQ1.e4772_s2726_r7725_r7676_p2669.HtX4Tops_00-00-11_out.root/
user.prose.363378.Sherpa.DAOD_TOPQ1.e4772_s2726_r7725_r7676_p2669.HtX4Tops_00-00-11_out.root/
user.prose.363381.Sherpa.DAOD_TOPQ1.e4716_s2726_r7725_r7676_p2669.HtX4Tops_00-00-11_out.root/
user.prose.363384.Sherpa.DAOD_TOPQ1.e4716_s2726_r7725_r7676_p2669.HtX4Tops_00-00-11_out.root/
user.prose.363387.Sherpa.DAOD_TOPQ1.e4716_s2726_r7725_r7676_p2669.HtX4Tops_00-00-11_out.root/
user.prose.363390.Sherpa.DAOD_TOPQ1.e4716_s2726_r7725_r7676_p2669.HtX4Tops_00-00-11_out.root/
user.prose.363393.Sherpa.DAOD_TOPQ1.e4716_s2726_r7725_r7676_p2669.HtX4Tops_00-00-11_out.root/
user.prose.363396.Sherpa.DAOD_TOPQ1.e4772_s2726_r7725_r7676_p2669.HtX4Tops_00-00-11_out.root/
user.prose.363399.Sherpa.DAOD_TOPQ1.e4772_s2726_r7725_r7676_p2669.HtX4Tops_00-00-11_out.root/
user.prose.363402.Sherpa.DAOD_TOPQ1.e4716_s2726_r7725_r7676_p2669.HtX4Tops_00-00-11_out.root/
user.prose.363408.Sherpa.DAOD_TOPQ1.e4772_s2726_r7725_r7676_p2669.HtX4Tops_00-00-11_out.root/
user.prose.363405.Sherpa.DAOD_TOPQ1.e4716_s2726_r7725_r7676_p2669.HtX4Tops_00-00-11_out.root/
user.prose.363411.Sherpa.DAOD_TOPQ1.e4772_s2726_r7725_r7676_p2669.HtX4Tops_00-00-11_out.root/
user.prose.363414.Sherpa.DAOD_TOPQ1.e4716_s2726_r7772_r7676_p2669.HtX4Tops_00-00-11_out.root/
user.prose.363417.Sherpa.DAOD_TOPQ1.e4772_s2726_r7772_r7676_p2669.HtX4Tops_00-00-11_out.root/
user.prose.363423.Sherpa.DAOD_TOPQ1.e4716_s2726_r7772_r7676_p2669.HtX4Tops_00-00-11_out.root/
user.prose.363420.Sherpa.DAOD_TOPQ1.e4772_s2726_r7772_r7676_p2669.HtX4Tops_00-00-11_out.root/
user.prose.363426.Sherpa.DAOD_TOPQ1.e4716_s2726_r7772_r7676_p2669.HtX4Tops_00-00-11_out.root/
user.prose.363429.Sherpa.DAOD_TOPQ1.e4716_s2726_r7772_r7676_p2669.HtX4Tops_00-00-11_out.root/
user.prose.363432.Sherpa.DAOD_TOPQ1.e4772_s2726_r7772_r7676_p2669.HtX4Tops_00-00-11_out.root/
user.prose.363435.Sherpa.DAOD_TOPQ1.e4772_s2726_r7772_r7676_p2669.HtX4Tops_00-00-11_out.root/
user.prose.361300.Sherpa.DAOD_TOPQ1.e3651_s2608_s2183_r7725_r7676_p2669.HtX4Tops_00-00-11_out.root/
user.prose.361303.Sherpa.DAOD_TOPQ1.e3651_s2586_s2174_r7772_r7676_p2669.HtX4Tops_00-00-11_out.root/
user.prose.361306.Sherpa.DAOD_TOPQ1.e3651_s2586_s2174_r7772_r7676_p2669.HtX4Tops_00-00-11_out.root/
user.prose.361309.Sherpa.DAOD_TOPQ1.e4133_s2608_s2183_r7725_r7676_p2669.HtX4Tops_00-00-11_out.root/
user.prose.361312.Sherpa.DAOD_TOPQ1.e4133_s2608_s2183_r7725_r7676_p2669.HtX4Tops_00-00-11_out.root/
user.prose.361315.Sherpa.DAOD_TOPQ1.e4133_s2608_s2183_r7725_r7676_p2669.HtX4Tops_00-00-11_out.root/
user.prose.361318.Sherpa.DAOD_TOPQ1.e4133_s2608_s2183_r7725_r7676_p2669.HtX4Tops_00-00-11_out.root/
user.prose.361321.Sherpa.DAOD_TOPQ1.e4133_s2608_s2183_r7725_r7676_p2669.HtX4Tops_00-00-11_out.root/
user.prose.361324.Sherpa.DAOD_TOPQ1.e3651_s2608_s2183_r7725_r7676_p2669.HtX4Tops_00-00-11_out.root/
user.prose.361327.Sherpa.DAOD_TOPQ1.e3651_s2586_s2174_r7772_r7676_p2669.HtX4Tops_00-00-11_out.root/
user.prose.361330.Sherpa.DAOD_TOPQ1.e3651_s2586_s2174_r7772_r7676_p2669.HtX4Tops_00-00-11_out.root/
user.prose.361333.Sherpa.DAOD_TOPQ1.e4133_s2608_s2183_r7725_r7676_p2669.HtX4Tops_00-00-11_out.root/
user.prose.361336.Sherpa.DAOD_TOPQ1.e4133_s2608_s2183_r7725_r7676_p2669.HtX4Tops_00-00-11_out.root/
user.prose.361339.Sherpa.DAOD_TOPQ1.e4133_s2608_s2183_r7725_r7676_p2669.HtX4Tops_00-00-11_out.root/
user.prose.361342.Sherpa.DAOD_TOPQ1.e4133_s2608_s2183_r7725_r7676_p2669.HtX4Tops_00-00-11_out.root/
user.prose.361345.Sherpa.DAOD_TOPQ1.e4133_s2608_s2183_r7725_r7676_p2669.HtX4Tops_00-00-11_out.root/
user.prose.361351.Sherpa.DAOD_TOPQ1.e3733_s2608_s2183_r7725_r7676_p2669.HtX4Tops_00-00-11_out.root/
user.prose.361354.Sherpa.DAOD_TOPQ1.e3733_s2608_s2183_r7725_r7676_p2669.HtX4Tops_00-00-11_out.root/
user.prose.361357.Sherpa.DAOD_TOPQ1.e4133_s2608_s2183_r7725_r7676_p2669.HtX4Tops_00-00-11_out.root/
user.prose.361360.Sherpa.DAOD_TOPQ1.e4133_s2608_s2183_r7725_r7676_p2669.HtX4Tops_00-00-11_out.root/
user.prose.361363.Sherpa.DAOD_TOPQ1.e4133_s2608_s2183_r7725_r7676_p2669.HtX4Tops_00-00-11_out.root/
user.prose.361366.Sherpa.DAOD_TOPQ1.e4133_s2608_s2183_r7725_r7676_p2669.HtX4Tops_00-00-11_out.root/
user.prose.361369.Sherpa.DAOD_TOPQ1.e4133_s2608_s2183_r7725_r7676_p2669.HtX4Tops_00-00-11_out.root/
user.prose.361301.Sherpa.DAOD_TOPQ1.e3651_s2586_s2174_r7772_r7676_p2669.HtX4Tops_00-00-11_out.root/
user.prose.361304.Sherpa.DAOD_TOPQ1.e3651_s2586_s2174_r7772_r7676_p2669.HtX4Tops_00-00-11_out.root/
user.prose.361307.Sherpa.DAOD_TOPQ1.e3651_s2586_s2174_r7772_r7676_p2669.HtX4Tops_00-00-11_out.root/
user.prose.361310.Sherpa.DAOD_TOPQ1.e4133_s2608_s2183_r7725_r7676_p2669.HtX4Tops_00-00-11_out.root/
user.prose.361313.Sherpa.DAOD_TOPQ1.e4133_s2608_s2183_r7725_r7676_p2669.HtX4Tops_00-00-11_out.root/
user.prose.361316.Sherpa.DAOD_TOPQ1.e4133_s2608_s2183_r7725_r7676_p2669.HtX4Tops_00-00-11_out.root/
user.prose.361319.Sherpa.DAOD_TOPQ1.e4133_s2608_s2183_r7725_r7676_p2669.HtX4Tops_00-00-11_out.root/
user.prose.361322.Sherpa.DAOD_TOPQ1.e4133_s2608_s2183_r7725_r7676_p2669.HtX4Tops_00-00-11_out.root/
user.prose.361325.Sherpa.DAOD_TOPQ1.e3651_s2586_s2174_r7772_r7676_p2669.HtX4Tops_00-00-11_out.root/
user.prose.361348.Sherpa.DAOD_TOPQ1.e3733_s2608_s2183_r7725_r7676_p2669.HtX4Tops_00-00-11_out.root/
user.prose.361328.Sherpa.DAOD_TOPQ1.e3651_s2586_s2174_r7772_r7676_p2669.HtX4Tops_00-00-11_out.root/
user.prose.361331.Sherpa.DAOD_TOPQ1.e3651_s2586_s2174_r7772_r7676_p2669.HtX4Tops_00-00-11_out.root/
user.prose.361334.Sherpa.DAOD_TOPQ1.e4133_s2608_s2183_r7725_r7676_p2669.HtX4Tops_00-00-11_out.root/
user.prose.361337.Sherpa.DAOD_TOPQ1.e4133_s2608_s2183_r7725_r7676_p2669.HtX4Tops_00-00-11_out.root/
user.prose.361340.Sherpa.DAOD_TOPQ1.e4133_s2608_s2183_r7725_r7676_p2669.HtX4Tops_00-00-11_out.root/
user.prose.361343.Sherpa.DAOD_TOPQ1.e4133_s2608_s2183_r7725_r7676_p2669.HtX4Tops_00-00-11_out.root/
user.prose.361346.Sherpa.DAOD_TOPQ1.e4133_s2608_s2183_r7725_r7676_p2669.HtX4Tops_00-00-11_out.root/
user.prose.361349.Sherpa.DAOD_TOPQ1.e3733_s2608_s2183_r7725_r7676_p2669.HtX4Tops_00-00-11_out.root/
user.prose.361352.Sherpa.DAOD_TOPQ1.e3733_s2608_s2183_r7725_r7676_p2669.HtX4Tops_00-00-11_out.root/
user.prose.361355.Sherpa.DAOD_TOPQ1.e3733_s2608_s2183_r7725_r7676_p2669.HtX4Tops_00-00-11_out.root/
user.prose.361358.Sherpa.DAOD_TOPQ1.e4133_s2608_s2183_r7725_r7676_p2669.HtX4Tops_00-00-11_out.root/
user.prose.361364.Sherpa.DAOD_TOPQ1.e4133_s2608_s2183_r7725_r7676_p2669.HtX4Tops_00-00-11_out.root/
user.prose.361367.Sherpa.DAOD_TOPQ1.e4133_s2608_s2183_r7725_r7676_p2669.HtX4Tops_00-00-11_out.root/
user.prose.361370.Sherpa.DAOD_TOPQ1.e4133_s2608_s2183_r7725_r7676_p2669.HtX4Tops_00-00-11_out.root/
user.prose.361361.Sherpa.DAOD_TOPQ1.e4133_s2608_s2183_r7725_r7676_p2669.HtX4Tops_00-00-11_out.root/
user.prose.361302.Sherpa.DAOD_TOPQ1.e3651_s2586_s2174_r7772_r7676_p2669.HtX4Tops_00-00-11_out.root/
user.prose.361305.Sherpa.DAOD_TOPQ1.e3651_s2586_s2174_r7772_r7676_p2669.HtX4Tops_00-00-11_out.root/
user.prose.361308.Sherpa.DAOD_TOPQ1.e3651_s2586_s2174_r7772_r7676_p2669.HtX4Tops_00-00-11_out.root/
user.prose.361311.Sherpa.DAOD_TOPQ1.e4133_s2608_s2183_r7725_r7676_p2669.HtX4Tops_00-00-11_out.root/
user.prose.361314.Sherpa.DAOD_TOPQ1.e4133_s2608_s2183_r7725_r7676_p2669.HtX4Tops_00-00-11_out.root/
user.prose.361317.Sherpa.DAOD_TOPQ1.e4133_s2608_s2183_r7725_r7676_p2669.HtX4Tops_00-00-11_out.root/
user.prose.361320.Sherpa.DAOD_TOPQ1.e4133_s2608_s2183_r7725_r7676_p2669.HtX4Tops_00-00-11_out.root/
user.prose.361323.Sherpa.DAOD_TOPQ1.e4133_s2608_s2183_r7725_r7676_p2669.HtX4Tops_00-00-11_out.root/
user.prose.361329.Sherpa.DAOD_TOPQ1.e3651_s2586_s2174_r7772_r7676_p2669.HtX4Tops_00-00-11_out.root/
user.prose.361332.Sherpa.DAOD_TOPQ1.e3651_s2586_s2174_r7772_r7676_p2669.HtX4Tops_00-00-11_out.root/
user.prose.361335.Sherpa.DAOD_TOPQ1.e4133_s2608_s2183_r7725_r7676_p2669.HtX4Tops_00-00-11_out.root/
user.prose.361338.Sherpa.DAOD_TOPQ1.e4133_s2608_s2183_r7725_r7676_p2669.HtX4Tops_00-00-11_out.root/
user.prose.361341.Sherpa.DAOD_TOPQ1.e4133_s2608_s2183_r7725_r7676_p2669.HtX4Tops_00-00-11_out.root/
user.prose.361326.Sherpa.DAOD_TOPQ1.e3651_s2608_s2183_r7772_r7676_p2669.HtX4Tops_00-00-11_out.root/
user.prose.361344.Sherpa.DAOD_TOPQ1.e4133_s2608_s2183_r7725_r7676_p2669.HtX4Tops_00-00-11_out.root/
user.prose.361347.Sherpa.DAOD_TOPQ1.e4133_s2608_s2183_r7725_r7676_p2669.HtX4Tops_00-00-11_out.root/
user.prose.361350.Sherpa.DAOD_TOPQ1.e3733_s2608_s2183_r7725_r7676_p2669.HtX4Tops_00-00-11_out.root/
user.prose.361353.Sherpa.DAOD_TOPQ1.e3733_s2608_s2183_r7725_r7676_p2669.HtX4Tops_00-00-11_out.root/
user.prose.361356.Sherpa.DAOD_TOPQ1.e3733_s2608_s2183_r7725_r7676_p2669.HtX4Tops_00-00-11_out.root/
user.prose.361359.Sherpa.DAOD_TOPQ1.e4133_s2608_s2183_r7725_r7676_p2669.HtX4Tops_00-00-11_out.root/
user.prose.361365.Sherpa.DAOD_TOPQ1.e4133_s2608_s2183_r7725_r7676_p2669.HtX4Tops_00-00-11_out.root/
user.prose.361362.Sherpa.DAOD_TOPQ1.e4133_s2608_s2183_r7725_r7676_p2669.HtX4Tops_00-00-11_out.root/
user.prose.361368.Sherpa.DAOD_TOPQ1.e4133_s2608_s2183_r7725_r7676_p2669.HtX4Tops_00-00-11_out.root/
user.prose.361371.Sherpa.DAOD_TOPQ1.e4133_s2608_s2183_r7725_r7676_p2669.HtX4Tops_00-00-11_out.root/
user.prose.361372.Sherpa.DAOD_TOPQ1.e3651_s2586_s2174_r7772_r7676_p2669.HtX4Tops_00-00-11_out.root/
user.prose.361375.Sherpa.DAOD_TOPQ1.e3651_s2586_s2174_r7772_r7676_p2669.HtX4Tops_00-00-11_out.root/
user.prose.361378.Sherpa.DAOD_TOPQ1.e3651_s2586_s2174_r7772_r7676_p2669.HtX4Tops_00-00-11_out.root/
user.prose.361381.Sherpa.DAOD_TOPQ1.e4133_s2608_s2183_r7772_r7676_p2669.HtX4Tops_00-00-11_out.root/
user.prose.361384.Sherpa.DAOD_TOPQ1.e4133_s2608_s2183_r7772_r7676_p2669.HtX4Tops_00-00-11_out.root/
user.prose.361387.Sherpa.DAOD_TOPQ1.e4133_s2608_s2183_r7772_r7676_p2669.HtX4Tops_00-00-11_out.root/
user.prose.361390.Sherpa.DAOD_TOPQ1.e4133_s2608_s2183_r7772_r7676_p2669.HtX4Tops_00-00-11_out.root/
user.prose.361393.Sherpa.DAOD_TOPQ1.e4133_s2608_s2183_r7772_r7676_p2669.HtX4Tops_00-00-11_out.root/
user.prose.361399.Sherpa.DAOD_TOPQ1.e3651_s2586_s2174_r7772_r7676_p2669.HtX4Tops_00-00-11_out.root/
user.prose.361396.Sherpa.DAOD_TOPQ1.e3651_s2586_s2174_r7772_r7676_p2669.HtX4Tops_00-00-11_out.root/
user.prose.361402.Sherpa.DAOD_TOPQ1.e3651_s2586_s2174_r7772_r7676_p2669.HtX4Tops_00-00-11_out.root/
user.prose.361405.Sherpa.DAOD_TOPQ1.e4133_s2608_s2183_r7772_r7676_p2669.HtX4Tops_00-00-11_out.root/
user.prose.361408.Sherpa.DAOD_TOPQ1.e4133_s2608_s2183_r7772_r7676_p2669.HtX4Tops_00-00-11_out.root/
user.prose.361411.Sherpa.DAOD_TOPQ1.e4133_s2608_s2183_r7772_r7676_p2669.HtX4Tops_00-00-11_out.root/
user.prose.361414.Sherpa.DAOD_TOPQ1.e4133_s2608_s2183_r7772_r7676_p2669.HtX4Tops_00-00-11_out.root/
user.prose.361417.Sherpa.DAOD_TOPQ1.e4133_s2608_s2183_r7772_r7676_p2669.HtX4Tops_00-00-11_out.root/
user.prose.361420.Sherpa.DAOD_TOPQ1.e3733_s2608_s2183_r7772_r7676_p2669.HtX4Tops_00-00-11_out.root/
user.prose.361423.Sherpa.DAOD_TOPQ1.e3733_s2608_s2183_r7772_r7676_p2669.HtX4Tops_00-00-11_out.root/
user.prose.361426.Sherpa.DAOD_TOPQ1.e3733_s2608_s2183_r7772_r7676_p2669.HtX4Tops_00-00-11_out.root/
user.prose.361429.Sherpa.DAOD_TOPQ1.e4133_s2608_s2183_r7772_r7676_p2669.HtX4Tops_00-00-11_out.root/
user.prose.361432.Sherpa.DAOD_TOPQ1.e4133_s2608_s2183_r7772_r7676_p2669.HtX4Tops_00-00-11_out.root/
user.prose.361435.Sherpa.DAOD_TOPQ1.e4133_s2608_s2183_r7772_r7676_p2669.HtX4Tops_00-00-11_out.root/
user.prose.361438.Sherpa.DAOD_TOPQ1.e4133_s2608_s2183_r7772_r7676_p2669.HtX4Tops_00-00-11_out.root/
user.prose.361441.Sherpa.DAOD_TOPQ1.e4133_s2608_s2183_r7772_r7676_p2669.HtX4Tops_00-00-11_out.root/
user.prose.361373.Sherpa.DAOD_TOPQ1.e3651_s2586_s2174_r7772_r7676_p2669.HtX4Tops_00-00-11_out.root/
user.prose.361376.Sherpa.DAOD_TOPQ1.e3651_s2586_s2174_r7772_r7676_p2669.HtX4Tops_00-00-11_out.root/
user.prose.361379.Sherpa.DAOD_TOPQ1.e3651_s2586_s2174_r7772_r7676_p2669.HtX4Tops_00-00-11_out.root/
user.prose.361382.Sherpa.DAOD_TOPQ1.e4133_s2608_s2183_r7772_r7676_p2669.HtX4Tops_00-00-11_out.root/
user.prose.361385.Sherpa.DAOD_TOPQ1.e4133_s2608_s2183_r7772_r7676_p2669.HtX4Tops_00-00-11_out.root/
user.prose.361388.Sherpa.DAOD_TOPQ1.e4133_s2608_s2183_r7772_r7676_p2669.HtX4Tops_00-00-11_out.root/
user.prose.361391.Sherpa.DAOD_TOPQ1.e4133_s2608_s2183_r7772_r7676_p2669.HtX4Tops_00-00-11_out.root/
user.prose.361394.Sherpa.DAOD_TOPQ1.e4133_s2608_s2183_r7772_r7676_p2669.HtX4Tops_00-00-11_out.root/
user.prose.361397.Sherpa.DAOD_TOPQ1.e3651_s2586_s2174_r7772_r7676_p2669.HtX4Tops_00-00-11_out.root/
user.prose.361400.Sherpa.DAOD_TOPQ1.e3651_s2586_s2174_r7772_r7676_p2669.HtX4Tops_00-00-11_out.root/
user.prose.361403.Sherpa.DAOD_TOPQ1.e3651_s2586_s2174_r7772_r7676_p2669.HtX4Tops_00-00-11_out.root/
user.prose.361406.Sherpa.DAOD_TOPQ1.e4133_s2608_s2183_r7772_r7676_p2669.HtX4Tops_00-00-11_out.root/
user.prose.361409.Sherpa.DAOD_TOPQ1.e4133_s2608_s2183_r7772_r7676_p2669.HtX4Tops_00-00-11_out.root/
user.prose.361412.Sherpa.DAOD_TOPQ1.e4133_s2608_s2183_r7772_r7676_p2669.HtX4Tops_00-00-11_out.root/
user.prose.361415.Sherpa.DAOD_TOPQ1.e4133_s2608_s2183_r7772_r7676_p2669.HtX4Tops_00-00-11_out.root/
user.prose.361418.Sherpa.DAOD_TOPQ1.e4133_s2608_s2183_r7772_r7676_p2669.HtX4Tops_00-00-11_out.root/
user.prose.361421.Sherpa.DAOD_TOPQ1.e3733_s2608_s2183_r7772_r7676_p2669.HtX4Tops_00-00-11_out.root/
user.prose.361424.Sherpa.DAOD_TOPQ1.e3733_s2608_s2183_r7772_r7676_p2669.HtX4Tops_00-00-11_out.root/
user.prose.361427.Sherpa.DAOD_TOPQ1.e3733_s2608_s2183_r7772_r7676_p2669.HtX4Tops_00-00-11_out.root/
user.prose.361430.Sherpa.DAOD_TOPQ1.e4133_s2608_s2183_r7772_r7676_p2669.HtX4Tops_00-00-11_out.root/
user.prose.361433.Sherpa.DAOD_TOPQ1.e4133_s2608_s2183_r7772_r7676_p2669.HtX4Tops_00-00-11_out.root/
user.prose.361436.Sherpa.DAOD_TOPQ1.e4133_s2608_s2183_r7772_r7676_p2669.HtX4Tops_00-00-11_out.root/
user.prose.361439.Sherpa.DAOD_TOPQ1.e4133_s2608_s2183_r7772_r7676_p2669.HtX4Tops_00-00-11_out.root/
user.prose.361442.Sherpa.DAOD_TOPQ1.e4133_s2608_s2183_r7772_r7676_p2669.HtX4Tops_00-00-11_out.root/
user.prose.361374.Sherpa.DAOD_TOPQ1.e3651_s2586_s2174_r7772_r7676_p2669.HtX4Tops_00-00-11_out.root/
user.prose.361377.Sherpa.DAOD_TOPQ1.e3651_s2586_s2174_r7772_r7676_p2669.HtX4Tops_00-00-11_out.root/
user.prose.361380.Sherpa.DAOD_TOPQ1.e3651_s2586_s2174_r7772_r7676_p2669.HtX4Tops_00-00-11_out.root/
user.prose.361383.Sherpa.DAOD_TOPQ1.e4133_s2608_s2183_r7772_r7676_p2669.HtX4Tops_00-00-11_out.root/
user.prose.361386.Sherpa.DAOD_TOPQ1.e4133_s2608_s2183_r7772_r7676_p2669.HtX4Tops_00-00-11_out.root/
user.prose.361389.Sherpa.DAOD_TOPQ1.e4133_s2608_s2183_r7772_r7676_p2669.HtX4Tops_00-00-11_out.root/
user.prose.361392.Sherpa.DAOD_TOPQ1.e4133_s2608_s2183_r7772_r7676_p2669.HtX4Tops_00-00-11_out.root/
user.prose.361395.Sherpa.DAOD_TOPQ1.e4133_s2608_s2183_r7772_r7676_p2669.HtX4Tops_00-00-11_out.root/
user.prose.361398.Sherpa.DAOD_TOPQ1.e3651_s2586_s2174_r7772_r7676_p2669.HtX4Tops_00-00-11_out.root/
user.prose.361401.Sherpa.DAOD_TOPQ1.e3651_s2586_s2174_r7772_r7676_p2669.HtX4Tops_00-00-11_out.root/
user.prose.361404.Sherpa.DAOD_TOPQ1.e3651_s2586_s2174_r7772_r7676_p2669.HtX4Tops_00-00-11_out.root/
user.prose.361407.Sherpa.DAOD_TOPQ1.e4133_s2608_s2183_r7772_r7676_p2669.HtX4Tops_00-00-11_out.root/
user.prose.361410.Sherpa.DAOD_TOPQ1.e4133_s2608_s2183_r7772_r7676_p2669.HtX4Tops_00-00-11_out.root/
user.prose.361413.Sherpa.DAOD_TOPQ1.e4133_s2608_s2183_r7772_r7676_p2669.HtX4Tops_00-00-11_out.root/
user.prose.361416.Sherpa.DAOD_TOPQ1.e4133_s2608_s2183_r7772_r7676_p2669.HtX4Tops_00-00-11_out.root/
user.prose.361419.Sherpa.DAOD_TOPQ1.e4133_s2608_s2183_r7772_r7676_p2669.HtX4Tops_00-00-11_out.root/
user.prose.361422.Sherpa.DAOD_TOPQ1.e3733_s2608_s2183_r7772_r7676_p2669.HtX4Tops_00-00-11_out.root/
user.prose.361425.Sherpa.DAOD_TOPQ1.e3733_s2608_s2183_r7772_r7676_p2669.HtX4Tops_00-00-11_out.root/
user.prose.361428.Sherpa.DAOD_TOPQ1.e3733_s2608_s2183_r7772_r7676_p2669.HtX4Tops_00-00-11_out.root/
user.prose.361431.Sherpa.DAOD_TOPQ1.e4133_s2608_s2183_r7772_r7676_p2669.HtX4Tops_00-00-11_out.root/
user.prose.361434.Sherpa.DAOD_TOPQ1.e4133_s2608_s2183_r7772_r7676_p2669.HtX4Tops_00-00-11_out.root/
user.prose.361437.Sherpa.DAOD_TOPQ1.e4133_s2608_s2183_r7772_r7676_p2669.HtX4Tops_00-00-11_out.root/
user.prose.361440.Sherpa.DAOD_TOPQ1.e4133_s2608_s2183_r7772_r7676_p2669.HtX4Tops_00-00-11_out.root/
user.prose.361443.Sherpa.DAOD_TOPQ1.e4133_s2608_s2183_r7772_r7676_p2669.HtX4Tops_00-00-11_out.root/
user.prose.361091.Sherpa.DAOD_TOPQ1.e4607_s2726_r7725_r7676_p2669.HtX4Tops_00-00-11_out.root/
user.prose.361092.Sherpa.DAOD_TOPQ1.e4607_s2726_r7725_r7676_p2669.HtX4Tops_00-00-11_out.root/
user.prose.361093.Sherpa.DAOD_TOPQ1.e4607_s2726_r7725_r7676_p2669.HtX4Tops_00-00-11_out.root/
user.prose.361094.Sherpa.DAOD_TOPQ1.e4607_s2726_r7725_r7676_p2669.HtX4Tops_00-00-11_out.root/
user.prose.361095.Sherpa.DAOD_TOPQ1.e4607_s2726_r7772_r7676_p2669.HtX4Tops_00-00-11_out.root/
user.prose.361096.Sherpa.DAOD_TOPQ1.e4607_s2726_r7725_r7676_p2669.HtX4Tops_00-00-11_out.root/
user.prose.361097.Sherpa.DAOD_TOPQ1.e4607_s2726_r7772_r7676_p2669.HtX4Tops_00-00-11_out.root/
user.prose.302468.ProtosLHEFPythia8EvtGen.DAOD_TOPQ1.e4112_s2608_r7772_r7676_p2669.HtX4Tops_00-00-11_out.root/
user.prose.302469.ProtosLHEFPythia8EvtGen.DAOD_TOPQ1.e4112_s2608_r7772_r7676_p2669.HtX4Tops_00-00-11_out.root/
user.prose.302470.ProtosLHEFPythia8EvtGen.DAOD_TOPQ1.e4112_s2608_r7772_r7676_p2669.HtX4Tops_00-00-11_out.root/
user.prose.302471.ProtosLHEFPythia8EvtGen.DAOD_TOPQ1.e4112_s2608_r7772_r7676_p2669.HtX4Tops_00-00-11_out.root/
user.prose.302472.ProtosLHEFPythia8EvtGen.DAOD_TOPQ1.e4112_s2608_r7772_r7676_p2669.HtX4Tops_00-00-11_out.root/
user.prose.302473.ProtosLHEFPythia8EvtGen.DAOD_TOPQ1.e4112_s2608_r7772_r7676_p2669.HtX4Tops_00-00-11_out.root/
user.prose.302474.ProtosLHEFPythia8EvtGen.DAOD_TOPQ1.e4112_s2608_r7772_r7676_p2669.HtX4Tops_00-00-11_out.root/
user.prose.302475.ProtosLHEFPythia8EvtGen.DAOD_TOPQ1.e4112_s2608_r7772_r7676_p2669.HtX4Tops_00-00-11_out.root/
user.prose.302476.ProtosLHEFPythia8EvtGen.DAOD_TOPQ1.e4112_s2608_r7772_r7676_p2669.HtX4Tops_00-00-11_out.root/
user.prose.302477.ProtosLHEFPythia8EvtGen.DAOD_TOPQ1.e4112_s2608_r7772_r7676_p2669.HtX4Tops_00-00-11_out.root/
user.prose.302478.ProtosLHEFPythia8EvtGen.DAOD_TOPQ1.e4112_s2608_r7772_r7676_p2669.HtX4Tops_00-00-11_out.root/
user.prose.302479.ProtosLHEFPythia8EvtGen.DAOD_TOPQ1.e4112_s2608_r7772_r7676_p2669.HtX4Tops_00-00-11_out.root/
user.prose.302480.ProtosLHEFPythia8EvtGen.DAOD_TOPQ1.e4112_s2608_r7772_r7676_p2669.HtX4Tops_00-00-11_out.root/
user.prose.302481.ProtosLHEFPythia8EvtGen.DAOD_TOPQ1.e4112_s2608_r7772_r7676_p2669.HtX4Tops_00-00-11_out.root/
user.prose.302482.ProtosLHEFPythia8EvtGen.DAOD_TOPQ1.e4112_s2608_r7772_r7676_p2669.HtX4Tops_00-00-11_out.root/
user.prose.302483.ProtosLHEFPythia8EvtGen.DAOD_TOPQ1.e4112_s2608_r7772_r7676_p2669.HtX4Tops_00-00-11_out.root/
user.prose.302484.ProtosLHEFPythia8EvtGen.DAOD_TOPQ1.e4112_s2608_r7772_r7676_p2669.HtX4Tops_00-00-11_out.root/
user.prose.302485.ProtosLHEFPythia8EvtGen.DAOD_TOPQ1.e4112_s2608_r7772_r7676_p2669.HtX4Tops_00-00-11_out.root/
user.prose.302486.ProtosLHEFPythia8EvtGen.DAOD_TOPQ1.e4112_s2608_r7772_r7676_p2669.HtX4Tops_00-00-11_out.root/
user.prose.302487.ProtosLHEFPythia8EvtGen.DAOD_TOPQ1.e4112_s2608_r7772_r7676_p2669.HtX4Tops_00-00-11_out.root/
user.prose.302488.ProtosLHEFPythia8EvtGen.DAOD_TOPQ1.e4141_s2608_r7772_r7676_p2669.HtX4Tops_00-00-11_out.root/
user.prose.302489.ProtosLHEFPythia8EvtGen.DAOD_TOPQ1.e4112_s2608_r7772_r7676_p2669.HtX4Tops_00-00-11_out.root/
user.prose.302490.ProtosLHEFPythia8EvtGen.DAOD_TOPQ1.e4112_s2608_r7772_r7676_p2669.HtX4Tops_00-00-11_out.root/
user.prose.302491.ProtosLHEFPythia8EvtGen.DAOD_TOPQ1.e4112_s2608_r7772_r7676_p2669.HtX4Tops_00-00-11_out.root/
user.prose.302492.ProtosLHEFPythia8EvtGen.DAOD_TOPQ1.e4112_s2608_r7772_r7676_p2669.HtX4Tops_00-00-11_out.root/
user.prose.302493.ProtosLHEFPythia8EvtGen.DAOD_TOPQ1.e4112_s2608_r7772_r7676_p2669.HtX4Tops_00-00-11_rt1_out.root/
user.prose.302494.ProtosLHEFPythia8EvtGen.DAOD_TOPQ1.e4112_s2608_r7772_r7676_p2669.HtX4Tops_00-00-11_out.root/
user.prose.302495.ProtosLHEFPythia8EvtGen.DAOD_TOPQ1.e4112_s2608_r7772_r7676_p2669.HtX4Tops_00-00-11_out.root/
user.prose.302497.ProtosLHEFPythia8EvtGen.DAOD_TOPQ1.e4112_s2608_r7772_r7676_p2669.HtX4Tops_00-00-11_out.root/
user.prose.302496.ProtosLHEFPythia8EvtGen.DAOD_TOPQ1.e4112_s2608_r7772_r7676_p2669.HtX4Tops_00-00-11_out.root/
user.prose.302498.ProtosLHEFPythia8EvtGen.DAOD_TOPQ1.e4112_s2608_r7772_r7676_p2669.HtX4Tops_00-00-11_out.root/
user.prose.302499.ProtosLHEFPythia8EvtGen.DAOD_TOPQ1.e4112_s2608_r7772_r7676_p2669.HtX4Tops_00-00-11_out.root/
user.prose.302500.ProtosLHEFPythia8EvtGen.DAOD_TOPQ1.e4112_s2608_r7772_r7676_p2669.HtX4Tops_00-00-11_out.root/
user.prose.302501.ProtosLHEFPythia8EvtGen.DAOD_TOPQ1.e4112_s2608_r7772_r7676_p2669.HtX4Tops_00-00-11_out.root/
user.prose.302502.ProtosLHEFPythia8EvtGen.DAOD_TOPQ1.e4112_s2608_r7772_r7676_p2669.HtX4Tops_00-00-11_out.root/
user.prose.302503.ProtosLHEFPythia8EvtGen.DAOD_TOPQ1.e4112_s2608_r7772_r7676_p2669.HtX4Tops_00-00-11_out.root/
user.prose.302504.ProtosLHEFPythia8EvtGen.DAOD_TOPQ1.e4112_s2608_r7772_r7676_p2669.HtX4Tops_00-00-11_out.root/
user.prose.302505.ProtosLHEFPythia8EvtGen.DAOD_TOPQ1.e4112_s2608_r7772_r7676_p2669.HtX4Tops_00-00-11_out.root/
user.prose.302506.ProtosLHEFPythia8EvtGen.DAOD_TOPQ1.e4112_s2608_r7772_r7676_p2669.HtX4Tops_00-00-11_out.root/
user.prose.302507.ProtosLHEFPythia8EvtGen.DAOD_TOPQ1.e4112_s2608_r7772_r7676_p2669.HtX4Tops_00-00-11_out.root/
user.prose.302508.ProtosLHEFPythia8EvtGen.DAOD_TOPQ1.e4112_s2608_r7772_r7676_p2669.HtX4Tops_00-00-11_out.root/
user.prose.302509.ProtosLHEFPythia8EvtGen.DAOD_TOPQ1.e4112_s2608_r7772_r7676_p2669.HtX4Tops_00-00-11_out.root/
user.prose.302510.ProtosLHEFPythia8EvtGen.DAOD_TOPQ1.e4112_s2608_r7772_r7676_p2669.HtX4Tops_00-00-11_out.root/
user.prose.302511.ProtosLHEFPythia8EvtGen.DAOD_TOPQ1.e4112_s2608_r7772_r7676_p2669.HtX4Tops_00-00-11_out.root/
user.prose.302512.ProtosLHEFPythia8EvtGen.DAOD_TOPQ1.e4112_s2608_r7772_r7676_p2669.HtX4Tops_00-00-11_out.root/
user.prose.302513.ProtosLHEFPythia8EvtGen.DAOD_TOPQ1.e4112_s2608_r7772_r7676_p2669.HtX4Tops_00-00-11_out.root/
user.prose.302514.ProtosLHEFPythia8EvtGen.DAOD_TOPQ1.e4112_s2608_r7772_r7676_p2669.HtX4Tops_00-00-11_out.root/
user.prose.302515.ProtosLHEFPythia8EvtGen.DAOD_TOPQ1.e4112_s2608_r7772_r7676_p2669.HtX4Tops_00-00-11_out.root/
user.prose.302516.ProtosLHEFPythia8EvtGen.DAOD_TOPQ1.e4112_s2608_r7772_r7676_p2669.HtX4Tops_00-00-11_out.root/
user.prose.302517.ProtosLHEFPythia8EvtGen.DAOD_TOPQ1.e4112_s2608_r7772_r7676_p2669.HtX4Tops_00-00-11_out.root/
user.prose.302518.ProtosLHEFPythia8EvtGen.DAOD_TOPQ1.e4112_s2608_r7772_r7676_p2669.HtX4Tops_00-00-11_out.root/
user.prose.302519.ProtosLHEFPythia8EvtGen.DAOD_TOPQ1.e4141_s2608_r7772_r7676_p2669.HtX4Tops_00-00-11_out.root/
user.prose.302777.MadGraphPythia8EvtGen.DAOD_TOPQ1.e4476_s2726_r7725_r7676_p2669.HtX4Tops_00-00-11_out.root/
user.prose.304780.MadGraphPythia8EvtGen.DAOD_TOPQ1.e4791_s2726_r7772_r7676_p2669.HtX4Tops_00-00-11_out.root/
user.prose.302055.MadGraphPythia8EvtGen.DAOD_TOPQ1.e4017_s2608_s2183_r7772_r7676_p2669.HtX4Tops_00-00-11_out.root/
user.prose.302056.MadGraphPythia8EvtGen.DAOD_TOPQ1.e4017_s2608_s2183_r7772_r7676_p2669.HtX4Tops_00-00-11_out.root/
user.prose.302057.MadGraphPythia8EvtGen.DAOD_TOPQ1.e4017_s2608_s2183_r7772_r7676_p2669.HtX4Tops_00-00-11_out.root/
user.prose.302058.MadGraphPythia8EvtGen.DAOD_TOPQ1.e4017_s2608_s2183_r7772_r7676_p2669.HtX4Tops_00-00-11_out.root/
user.prose.302059.MadGraphPythia8EvtGen.DAOD_TOPQ1.e4017_s2608_s2183_r7772_r7676_p2669.HtX4Tops_00-00-11_out.root/
user.prose.304777.MadGraphPythia8EvtGen.DAOD_TOPQ1.e4874_s2726_r7772_r7676_p2669.HtX4Tops_00-00-11_out.root/
user.prose.343434.MadGraphPythia8EvtGen.DAOD_TOPQ1.e4776_a766_a818_r7676_p2616.HtX4Tops_00-00-11_out.root/
user.prose.410004.PowhegHerwigppEvtGen.DAOD_TOPQ1.e3836_a766_a821_r7676_p2669.HtX4Tops_00-00-11_out.root/
user.prose.343432.MadGraphPythia8EvtGen.DAOD_TOPQ1.e4776_a766_a818_r7676_p2616.HtX4Tops_00-00-11_out.root/
user.prose.341541.aMcAtNloPythia8EvtGen.DAOD_TOPQ1.e4336_a766_a821_r7676_p2669.HtX4Tops_00-00-11_out.root/
user.prose.341547.aMcAtNloPythia8EvtGen.DAOD_TOPQ1.e4336_a766_a821_r7676_p2669.HtX4Tops_00-00-11_out.root/
user.prose.341553.aMcAtNloPythia8EvtGen.DAOD_TOPQ1.e4336_a766_a821_r7676_p2669.HtX4Tops_00-00-11_out.root/
user.prose.341548.aMcAtNloPythia8EvtGen.DAOD_TOPQ1.e4336_a766_a821_r7676_p2669.HtX4Tops_00-00-11_out.root/
user.prose.341550.aMcAtNloPythia8EvtGen.DAOD_TOPQ1.e4336_a766_a821_r7676_p2669.HtX4Tops_00-00-11_out.root/
user.prose.00276262.physics_Main.DAOD_TOPQ1.r7562_p2521_p2667.HtX4Tops_00-00-11_V2_out.root/
user.prose.00276329.physics_Main.DAOD_TOPQ1.r7562_p2521_p2667.HtX4Tops_00-00-11_V2_out.root/
user.prose.00276336.physics_Main.DAOD_TOPQ1.r7562_p2521_p2667.HtX4Tops_00-00-11_V2_out.root/
user.prose.00276416.physics_Main.DAOD_TOPQ1.r7562_p2521_p2667.HtX4Tops_00-00-11_V2_out.root/
user.prose.00276511.physics_Main.DAOD_TOPQ1.r7562_p2521_p2667.HtX4Tops_00-00-11_V2_out.root/
user.prose.00276689.physics_Main.DAOD_TOPQ1.r7562_p2521_p2667.HtX4Tops_00-00-11_V2_out.root/
user.prose.00276778.physics_Main.DAOD_TOPQ1.r7562_p2521_p2667.HtX4Tops_00-00-11_V2_out.root/
user.prose.00276790.physics_Main.DAOD_TOPQ1.r7562_p2521_p2667.HtX4Tops_00-00-11_V2_out.root/
user.prose.00276952.physics_Main.DAOD_TOPQ1.r7562_p2521_p2667.HtX4Tops_00-00-11_V2_out.root/
user.prose.00276954.physics_Main.DAOD_TOPQ1.r7562_p2521_p2667.HtX4Tops_00-00-11_V2_out.root/
user.prose.00278880.physics_Main.DAOD_TOPQ1.r7562_p2521_p2667.HtX4Tops_00-00-11_V2_out.root/
user.prose.00278912.physics_Main.DAOD_TOPQ1.r7562_p2521_p2667.HtX4Tops_00-00-11_V2_out.root/
user.prose.00278968.physics_Main.DAOD_TOPQ1.r7562_p2521_p2667.HtX4Tops_00-00-11_V2_out.root/
user.prose.00279169.physics_Main.DAOD_TOPQ1.r7562_p2521_p2667.HtX4Tops_00-00-11_V2_out.root/
user.prose.00279259.physics_Main.DAOD_TOPQ1.r7562_p2521_p2667.HtX4Tops_00-00-11_V2_out.root/
user.prose.00279279.physics_Main.DAOD_TOPQ1.r7562_p2521_p2667.HtX4Tops_00-00-11_V2_out.root/
user.prose.00279284.physics_Main.DAOD_TOPQ1.r7562_p2521_p2667.HtX4Tops_00-00-11_V2_out.root/
user.prose.00279345.physics_Main.DAOD_TOPQ1.r7562_p2521_p2667.HtX4Tops_00-00-11_V2_out.root/
user.prose.00279515.physics_Main.DAOD_TOPQ1.r7562_p2521_p2667.HtX4Tops_00-00-11_V2_out.root/
user.prose.00279598.physics_Main.DAOD_TOPQ1.r7562_p2521_p2667.HtX4Tops_00-00-11_V2_out.root/
user.prose.00279685.physics_Main.DAOD_TOPQ1.r7562_p2521_p2667.HtX4Tops_00-00-11_V2_out.root/
user.prose.00279764.physics_Main.DAOD_TOPQ1.r7562_p2521_p2667.HtX4Tops_00-00-11_V2_out.root/
user.prose.00279813.physics_Main.DAOD_TOPQ1.r7562_p2521_p2667.HtX4Tops_00-00-11_V2_out.root/
user.prose.00279867.physics_Main.DAOD_TOPQ1.r7562_p2521_p2667.HtX4Tops_00-00-11_V2_out.root/
user.prose.00279928.physics_Main.DAOD_TOPQ1.r7562_p2521_p2667.HtX4Tops_00-00-11_V2_out.root/
user.prose.00279932.physics_Main.DAOD_TOPQ1.r7562_p2521_p2667.HtX4Tops_00-00-11_V2_out.root/
user.prose.00279984.physics_Main.DAOD_TOPQ1.r7562_p2521_p2667.HtX4Tops_00-00-11_V2_out.root/
user.prose.00280231.physics_Main.DAOD_TOPQ1.r7562_p2521_p2667.HtX4Tops_00-00-11_V2_out.root/
user.prose.00280319.physics_Main.DAOD_TOPQ1.r7562_p2521_p2667.HtX4Tops_00-00-11_V2_out.root/
user.prose.00280368.physics_Main.DAOD_TOPQ1.r7562_p2521_p2667.HtX4Tops_00-00-11_V2_out.root/
user.prose.00280423.physics_Main.DAOD_TOPQ1.r7562_p2521_p2667.HtX4Tops_00-00-11_V2_out.root/
user.prose.00280464.physics_Main.DAOD_TOPQ1.r7562_p2521_p2667.HtX4Tops_00-00-11_V2_out.root/
user.prose.00280500.physics_Main.DAOD_TOPQ1.r7562_p2521_p2667.HtX4Tops_00-00-11_V2_out.root/
user.prose.00280520.physics_Main.DAOD_TOPQ1.r7562_p2521_p2667.HtX4Tops_00-00-11_V2_out.root/
user.prose.00280614.physics_Main.DAOD_TOPQ1.r7562_p2521_p2667.HtX4Tops_00-00-11_V2_out.root/
user.prose.00280673.physics_Main.DAOD_TOPQ1.r7562_p2521_p2667.HtX4Tops_00-00-11_V2_out.root/
user.prose.00280753.physics_Main.DAOD_TOPQ1.r7562_p2521_p2667.HtX4Tops_00-00-11_V2_out.root/
user.prose.00280853.physics_Main.DAOD_TOPQ1.r7562_p2521_p2667.HtX4Tops_00-00-11_V2_out.root/
user.prose.00280862.physics_Main.DAOD_TOPQ1.r7562_p2521_p2667.HtX4Tops_00-00-11_V2_out.root/
user.prose.00280950.physics_Main.DAOD_TOPQ1.r7562_p2521_p2667.HtX4Tops_00-00-11_V2_out.root/
user.prose.00280977.physics_Main.DAOD_TOPQ1.r7562_p2521_p2667.HtX4Tops_00-00-11_V2_out.root/
user.prose.00281070.physics_Main.DAOD_TOPQ1.r7562_p2521_p2667.HtX4Tops_00-00-11_V2_out.root/
user.prose.00281074.physics_Main.DAOD_TOPQ1.r7562_p2521_p2667.HtX4Tops_00-00-11_V2_out.root/
user.prose.00281075.physics_Main.DAOD_TOPQ1.r7562_p2521_p2667.HtX4Tops_00-00-11_V2_out.root/
user.prose.00281317.physics_Main.DAOD_TOPQ1.r7562_p2521_p2667.HtX4Tops_00-00-11_V2_out.root/
user.prose.00281385.physics_Main.DAOD_TOPQ1.r7562_p2521_p2667.HtX4Tops_00-00-11_V2_out.root/
user.prose.00281411.physics_Main.DAOD_TOPQ1.r7562_p2521_p2667.HtX4Tops_00-00-11_V2_out.root/
user.prose.00282625.physics_Main.DAOD_TOPQ1.r7562_p2521_p2667.HtX4Tops_00-00-11_V2_out.root/
user.prose.00282631.physics_Main.DAOD_TOPQ1.r7562_p2521_p2667.HtX4Tops_00-00-11_V2_out.root/
user.prose.00282712.physics_Main.DAOD_TOPQ1.r7562_p2521_p2667.HtX4Tops_00-00-11_V2_out.root/
user.prose.00282784.physics_Main.DAOD_TOPQ1.r7562_p2521_p2667.HtX4Tops_00-00-11_V2_out.root/
user.prose.00282992.physics_Main.DAOD_TOPQ1.r7562_p2521_p2667.HtX4Tops_00-00-11_V2_out.root/
user.prose.00283074.physics_Main.DAOD_TOPQ1.r7562_p2521_p2667.HtX4Tops_00-00-11_V2_out.root/
user.prose.00283155.physics_Main.DAOD_TOPQ1.r7562_p2521_p2667.HtX4Tops_00-00-11_V2_out.root/
user.prose.00283270.physics_Main.DAOD_TOPQ1.r7562_p2521_p2667.HtX4Tops_00-00-11_V2_out.root/
user.prose.00283429.physics_Main.DAOD_TOPQ1.r7562_p2521_p2667.HtX4Tops_00-00-11_V2_out.root/
user.prose.00283608.physics_Main.DAOD_TOPQ1.r7562_p2521_p2667.HtX4Tops_00-00-11_V2_out.root/
user.prose.00283780.physics_Main.DAOD_TOPQ1.r7562_p2521_p2667.HtX4Tops_00-00-11_V2_out.root/
user.prose.00284006.physics_Main.DAOD_TOPQ1.r7562_p2521_p2667.HtX4Tops_00-00-11_V2_out.root/
user.prose.00284154.physics_Main.DAOD_TOPQ1.r7562_p2521_p2667.HtX4Tops_00-00-11_V2_out.root/
user.prose.00284213.physics_Main.DAOD_TOPQ1.r7562_p2521_p2667.HtX4Tops_00-00-11_V2_out.root/
user.prose.00284285.physics_Main.DAOD_TOPQ1.r7562_p2521_p2667.HtX4Tops_00-00-11_V2_out.root/
user.prose.00284420.physics_Main.DAOD_TOPQ1.r7562_p2521_p2667.HtX4Tops_00-00-11_V2_out.root/
user.prose.00284427.physics_Main.DAOD_TOPQ1.r7562_p2521_p2667.HtX4Tops_00-00-11_V2_out.root/
user.prose.00284484.physics_Main.DAOD_TOPQ1.r7562_p2521_p2667.HtX4Tops_00-00-11_V2_out.root/
user.prose.00297730.physics_Main.DAOD_TOPQ1.f694_m1583_p2667.HtX4Tops_00-00-11_out.root/
user.prose.00298595.physics_Main.DAOD_TOPQ1.f698_m1594_p2667.HtX4Tops_00-00-11_out.root/
user.prose.00298609.physics_Main.DAOD_TOPQ1.f698_m1594_p2667.HtX4Tops_00-00-11_out.root/
user.prose.00298633.physics_Main.DAOD_TOPQ1.f698_m1594_p2667.HtX4Tops_00-00-11_out.root/
user.prose.00298687.physics_Main.DAOD_TOPQ1.f698_m1594_p2667.HtX4Tops_00-00-11_out.root/
user.prose.00298690.physics_Main.DAOD_TOPQ1.f698_m1594_p2667.HtX4Tops_00-00-11_out.root/
user.prose.00298771.physics_Main.DAOD_TOPQ1.f698_m1594_p2667.HtX4Tops_00-00-11_out.root/
user.prose.00298773.physics_Main.DAOD_TOPQ1.f698_m1594_p2667.HtX4Tops_00-00-11_out.root/
user.prose.00298862.physics_Main.DAOD_TOPQ1.f696_m1588_p2667.HtX4Tops_00-00-11_out.root/
user.prose.00298967.physics_Main.DAOD_TOPQ1.f696_m1588_p2667.HtX4Tops_00-00-11_out.root/
user.prose.00299055.physics_Main.DAOD_TOPQ1.f698_m1594_p2667.HtX4Tops_00-00-11_out.root/
user.prose.00299144.physics_Main.DAOD_TOPQ1.f698_m1594_p2667.HtX4Tops_00-00-11_out.root/
user.prose.00299147.physics_Main.DAOD_TOPQ1.f698_m1594_p2667.HtX4Tops_00-00-11_out.root/
user.prose.00299184.physics_Main.DAOD_TOPQ1.f698_m1594_p2667.HtX4Tops_00-00-11_out.root/
user.prose.00299243.physics_Main.DAOD_TOPQ1.f698_m1594_p2667.HtX4Tops_00-00-11_out.root/
user.prose.00299584.physics_Main.DAOD_TOPQ1.f703_m1600_p2667.HtX4Tops_00-00-11_out.root/
user.prose.00300279.physics_Main.DAOD_TOPQ1.f705_m1606_p2667.HtX4Tops_00-00-11_out.root/
user.prose.00300345.physics_Main.DAOD_TOPQ1.f705_m1606_p2667.HtX4Tops_00-00-11_out.root/
user.prose.00300415.physics_Main.DAOD_TOPQ1.f705_m1606_p2667.HtX4Tops_00-00-11_out.root/
user.prose.00300418.physics_Main.DAOD_TOPQ1.f705_m1606_p2667.HtX4Tops_00-00-11_out.root/
user.prose.00300487.physics_Main.DAOD_TOPQ1.f705_m1606_p2667.HtX4Tops_00-00-11_out.root/
user.prose.00300540.physics_Main.DAOD_TOPQ1.f705_m1606_p2667.HtX4Tops_00-00-11_out.root/
user.prose.00300571.physics_Main.DAOD_TOPQ1.f705_m1606_p2667.HtX4Tops_00-00-11_out.root/
user.prose.00300600.physics_Main.DAOD_TOPQ1.f708_m1606_p2667.HtX4Tops_00-00-11_out.root/
user.prose.00300655.physics_Main.DAOD_TOPQ1.f708_m1606_p2667.HtX4Tops_00-00-11_out.root/
user.prose.00300687.physics_Main.DAOD_TOPQ1.f708_m1606_p2667.HtX4Tops_00-00-11_out.root/
user.prose.00300784.physics_Main.DAOD_TOPQ1.f708_m1606_p2667.HtX4Tops_00-00-11_out.root/
user.prose.00300800.physics_Main.DAOD_TOPQ1.f708_m1606_p2667.HtX4Tops_00-00-11_out.root/
user.prose.00300863.physics_Main.DAOD_TOPQ1.f708_m1606_p2667.HtX4Tops_00-00-11_out.root/
user.prose.00300908.physics_Main.DAOD_TOPQ1.f708_m1606_p2667.HtX4Tops_00-00-11_out.root/
user.prose.00276262.physics_Main.DAOD_TOPQ4.r7562_p2521_p2667.HtX4Tops_00-00-11_out.root/
user.prose.00276329.physics_Main.DAOD_TOPQ4.r7562_p2521_p2667.HtX4Tops_00-00-11_out.root/
user.prose.00276336.physics_Main.DAOD_TOPQ4.r7562_p2521_p2667.HtX4Tops_00-00-11_out.root/
user.prose.00276416.physics_Main.DAOD_TOPQ4.r7562_p2521_p2667.HtX4Tops_00-00-11_out.root/
user.prose.00276511.physics_Main.DAOD_TOPQ4.r7562_p2521_p2667.HtX4Tops_00-00-11_out.root/
user.prose.00276689.physics_Main.DAOD_TOPQ4.r7562_p2521_p2667.HtX4Tops_00-00-11_out.root/
user.prose.00276778.physics_Main.DAOD_TOPQ4.r7562_p2521_p2667.HtX4Tops_00-00-11_out.root/
user.prose.00276790.physics_Main.DAOD_TOPQ4.r7562_p2521_p2667.HtX4Tops_00-00-11_out.root/
user.prose.00276952.physics_Main.DAOD_TOPQ4.r7562_p2521_p2667.HtX4Tops_00-00-11_out.root/
user.prose.00276954.physics_Main.DAOD_TOPQ4.r7562_p2521_p2667.HtX4Tops_00-00-11_out.root/
user.prose.00278880.physics_Main.DAOD_TOPQ4.r7562_p2521_p2667.HtX4Tops_00-00-11_out.root/
user.prose.00278912.physics_Main.DAOD_TOPQ4.r7562_p2521_p2667.HtX4Tops_00-00-11_out.root/
user.prose.00278968.physics_Main.DAOD_TOPQ4.r7562_p2521_p2667.HtX4Tops_00-00-11_out.root/
user.prose.00279169.physics_Main.DAOD_TOPQ4.r7562_p2521_p2667.HtX4Tops_00-00-11_rt1_out.root/
user.prose.00279259.physics_Main.DAOD_TOPQ4.r7562_p2521_p2667.HtX4Tops_00-00-11_out.root/
user.prose.00279279.physics_Main.DAOD_TOPQ4.r7562_p2521_p2667.HtX4Tops_00-00-11_out.root/
user.prose.00279284.physics_Main.DAOD_TOPQ4.r7562_p2521_p2667.HtX4Tops_00-00-11_out.root/
user.prose.00279345.physics_Main.DAOD_TOPQ4.r7562_p2521_p2667.HtX4Tops_00-00-11_out.root/
user.prose.00279515.physics_Main.DAOD_TOPQ4.r7562_p2521_p2667.HtX4Tops_00-00-11_out.root/
user.prose.00279598.physics_Main.DAOD_TOPQ4.r7562_p2521_p2667.HtX4Tops_00-00-11_out.root/
user.prose.00279685.physics_Main.DAOD_TOPQ4.r7562_p2521_p2667.HtX4Tops_00-00-11_out.root/
user.prose.00279764.physics_Main.DAOD_TOPQ4.r7562_p2521_p2667.HtX4Tops_00-00-11_out.root/
user.prose.00279813.physics_Main.DAOD_TOPQ4.r7562_p2521_p2667.HtX4Tops_00-00-11_out.root/
user.prose.00279867.physics_Main.DAOD_TOPQ4.r7562_p2521_p2667.HtX4Tops_00-00-11_out.root/
user.prose.00279928.physics_Main.DAOD_TOPQ4.r7562_p2521_p2667.HtX4Tops_00-00-11_out.root/
user.prose.00279932.physics_Main.DAOD_TOPQ4.r7562_p2521_p2667.HtX4Tops_00-00-11_out.root/
user.prose.00279984.physics_Main.DAOD_TOPQ4.r7562_p2521_p2667.HtX4Tops_00-00-11_out.root/
user.prose.00280231.physics_Main.DAOD_TOPQ4.r7562_p2521_p2667.HtX4Tops_00-00-11_out.root/
user.prose.00280319.physics_Main.DAOD_TOPQ4.r7562_p2521_p2667.HtX4Tops_00-00-11_out.root/
user.prose.00280368.physics_Main.DAOD_TOPQ4.r7562_p2521_p2667.HtX4Tops_00-00-11_out.root/
user.prose.00280423.physics_Main.DAOD_TOPQ4.r7562_p2521_p2667.HtX4Tops_00-00-11_out.root/
user.prose.00280464.physics_Main.DAOD_TOPQ4.r7562_p2521_p2667.HtX4Tops_00-00-11_out.root/
user.prose.00280500.physics_Main.DAOD_TOPQ4.r7562_p2521_p2667.HtX4Tops_00-00-11_out.root/
user.prose.00280520.physics_Main.DAOD_TOPQ4.r7562_p2521_p2667.HtX4Tops_00-00-11_out.root/
user.prose.00280614.physics_Main.DAOD_TOPQ4.r7562_p2521_p2667.HtX4Tops_00-00-11_out.root/
user.prose.00280673.physics_Main.DAOD_TOPQ4.r7562_p2521_p2667.HtX4Tops_00-00-11_out.root/
user.prose.00280753.physics_Main.DAOD_TOPQ4.r7562_p2521_p2667.HtX4Tops_00-00-11_out.root/
user.prose.00280853.physics_Main.DAOD_TOPQ4.r7562_p2521_p2667.HtX4Tops_00-00-11_out.root/
user.prose.00280862.physics_Main.DAOD_TOPQ4.r7562_p2521_p2667.HtX4Tops_00-00-11_out.root/
user.prose.00280950.physics_Main.DAOD_TOPQ4.r7562_p2521_p2667.HtX4Tops_00-00-11_out.root/
user.prose.00280977.physics_Main.DAOD_TOPQ4.r7562_p2521_p2667.HtX4Tops_00-00-11_out.root/
user.prose.00281070.physics_Main.DAOD_TOPQ4.r7562_p2521_p2667.HtX4Tops_00-00-11_out.root/
user.prose.00281074.physics_Main.DAOD_TOPQ4.r7562_p2521_p2667.HtX4Tops_00-00-11_out.root/
user.prose.00281075.physics_Main.DAOD_TOPQ4.r7562_p2521_p2667.HtX4Tops_00-00-11_out.root/
user.prose.00281317.physics_Main.DAOD_TOPQ4.r7562_p2521_p2667.HtX4Tops_00-00-11_out.root/
user.prose.00281385.physics_Main.DAOD_TOPQ4.r7562_p2521_p2667.HtX4Tops_00-00-11_out.root/
user.prose.00281411.physics_Main.DAOD_TOPQ4.r7562_p2521_p2667.HtX4Tops_00-00-11_out.root/
user.prose.00282625.physics_Main.DAOD_TOPQ4.r7562_p2521_p2667.HtX4Tops_00-00-11_out.root/
user.prose.00282631.physics_Main.DAOD_TOPQ4.r7562_p2521_p2667.HtX4Tops_00-00-11_out.root/
user.prose.00282712.physics_Main.DAOD_TOPQ4.r7562_p2521_p2667.HtX4Tops_00-00-11_out.root/
user.prose.00282784.physics_Main.DAOD_TOPQ4.r7562_p2521_p2667.HtX4Tops_00-00-11_out.root/
user.prose.00282992.physics_Main.DAOD_TOPQ4.r7562_p2521_p2667.HtX4Tops_00-00-11_out.root/
user.prose.00283074.physics_Main.DAOD_TOPQ4.r7562_p2521_p2667.HtX4Tops_00-00-11_out.root/
user.prose.00283155.physics_Main.DAOD_TOPQ4.r7562_p2521_p2667.HtX4Tops_00-00-11_out.root/
user.prose.00283270.physics_Main.DAOD_TOPQ4.r7562_p2521_p2667.HtX4Tops_00-00-11_out.root/
user.prose.00283429.physics_Main.DAOD_TOPQ4.r7562_p2521_p2667.HtX4Tops_00-00-11_out.root/
user.prose.00283608.physics_Main.DAOD_TOPQ4.r7562_p2521_p2667.HtX4Tops_00-00-11_out.root/
user.prose.00283780.physics_Main.DAOD_TOPQ4.r7562_p2521_p2667.HtX4Tops_00-00-11_out.root/
user.prose.00284154.physics_Main.DAOD_TOPQ4.r7562_p2521_p2667.HtX4Tops_00-00-11_out.root/
user.prose.00284006.physics_Main.DAOD_TOPQ4.r7562_p2521_p2667.HtX4Tops_00-00-11_out.root/
user.prose.00284213.physics_Main.DAOD_TOPQ4.r7562_p2521_p2667.HtX4Tops_00-00-11_out.root/
user.prose.00284285.physics_Main.DAOD_TOPQ4.r7562_p2521_p2667.HtX4Tops_00-00-11_out.root/
user.prose.00284420.physics_Main.DAOD_TOPQ4.r7562_p2521_p2667.HtX4Tops_00-00-11_out.root/
user.prose.00284427.physics_Main.DAOD_TOPQ4.r7562_p2521_p2667.HtX4Tops_00-00-11_out.root/
user.prose.00284484.physics_Main.DAOD_TOPQ4.r7562_p2521_p2667.HtX4Tops_00-00-11_out.root/
user.prose.00297730.physics_Main.DAOD_TOPQ4.f694_m1583_p2667.HtX4Tops_00-00-11_out.root/
user.prose.00298595.physics_Main.DAOD_TOPQ4.f698_m1594_p2667.HtX4Tops_00-00-11_out.root/
user.prose.00298609.physics_Main.DAOD_TOPQ4.f698_m1594_p2667.HtX4Tops_00-00-11_out.root/
user.prose.00298633.physics_Main.DAOD_TOPQ4.f698_m1594_p2667.HtX4Tops_00-00-11_out.root/
user.prose.00298687.physics_Main.DAOD_TOPQ4.f698_m1594_p2667.HtX4Tops_00-00-11_out.root/
user.prose.00298690.physics_Main.DAOD_TOPQ4.f698_m1594_p2667.HtX4Tops_00-00-11_out.root/
user.prose.00298773.physics_Main.DAOD_TOPQ4.f698_m1594_p2667.HtX4Tops_00-00-11_out.root/
user.prose.00298771.physics_Main.DAOD_TOPQ4.f698_m1594_p2667.HtX4Tops_00-00-11_out.root/
user.prose.00298862.physics_Main.DAOD_TOPQ4.f696_m1588_p2667.HtX4Tops_00-00-11_out.root/
user.prose.00298967.physics_Main.DAOD_TOPQ4.f696_m1588_p2667.HtX4Tops_00-00-11_out.root/
user.prose.00299055.physics_Main.DAOD_TOPQ4.f698_m1594_p2667.HtX4Tops_00-00-11_out.root/
user.prose.00299144.physics_Main.DAOD_TOPQ4.f698_m1594_p2667.HtX4Tops_00-00-11_out.root/
user.prose.00299147.physics_Main.DAOD_TOPQ4.f698_m1594_p2667.HtX4Tops_00-00-11_out.root/
user.prose.00299243.physics_Main.DAOD_TOPQ4.f698_m1594_p2667.HtX4Tops_00-00-11_out.root/
user.prose.00299584.physics_Main.DAOD_TOPQ4.f703_m1600_p2667.HtX4Tops_00-00-11_out.root/
user.prose.00300279.physics_Main.DAOD_TOPQ4.f705_m1606_p2667.HtX4Tops_00-00-11_out.root/
user.prose.00300345.physics_Main.DAOD_TOPQ4.f705_m1606_p2667.HtX4Tops_00-00-11_out.root/
user.prose.00300415.physics_Main.DAOD_TOPQ4.f705_m1606_p2667.HtX4Tops_00-00-11_out.root/
user.prose.00300418.physics_Main.DAOD_TOPQ4.f705_m1606_p2667.HtX4Tops_00-00-11_out.root/
user.prose.00300487.physics_Main.DAOD_TOPQ4.f705_m1606_p2667.HtX4Tops_00-00-11_out.root/
user.prose.00300540.physics_Main.DAOD_TOPQ4.f705_m1606_p2667.HtX4Tops_00-00-11_out.root/
user.prose.00300571.physics_Main.DAOD_TOPQ4.f705_m1606_p2667.HtX4Tops_00-00-11_out.root/
user.prose.00300600.physics_Main.DAOD_TOPQ4.f708_m1606_p2667.HtX4Tops_00-00-11_rt1_out.root/
user.prose.00300655.physics_Main.DAOD_TOPQ4.f708_m1606_p2667.HtX4Tops_00-00-11_out.root/
user.prose.00300687.physics_Main.DAOD_TOPQ4.f708_m1606_p2667.HtX4Tops_00-00-11_out.root/
user.prose.00300784.physics_Main.DAOD_TOPQ4.f708_m1606_p2667.HtX4Tops_00-00-11_out.root/
user.prose.00300800.physics_Main.DAOD_TOPQ4.f708_m1606_p2667.HtX4Tops_00-00-11_out.root/
user.prose.00300863.physics_Main.DAOD_TOPQ4.f708_m1606_p2667.HtX4Tops_00-00-11_out.root/
user.prose.00300908.physics_Main.DAOD_TOPQ4.f708_m1606_p2667.HtX4Tops_00-00-11_out.root/
user.prose.00299184.physics_Main.DAOD_TOPQ4.f698_m1594_p2667.HtX4Tops_00-00-11_out.root/
user.prose.341542.aMcAtNloPythia8EvtGen.DAOD_TOPQ1.e4336_a766_a821_r7676_p2669.HtX4Tops_00-00-11_out.root/
user.prose.341543.aMcAtNloPythia8EvtGen.DAOD_TOPQ1.e4336_a766_a821_r7676_p2669.HtX4Tops_00-00-11_out.root/
user.prose.341544.aMcAtNloPythia8EvtGen.DAOD_TOPQ1.e4336_a766_a821_r7676_p2669.HtX4Tops_00-00-11_out.root/
user.prose.341545.aMcAtNloPythia8EvtGen.DAOD_TOPQ1.e4336_a766_a821_r7676_p2669.HtX4Tops_00-00-11_out.root/
user.prose.341546.aMcAtNloPythia8EvtGen.DAOD_TOPQ1.e4336_a766_a821_r7676_p2669.HtX4Tops_00-00-11_out.root/
user.prose.341549.aMcAtNloPythia8EvtGen.DAOD_TOPQ1.e4336_a766_a821_r7676_p2669.HtX4Tops_00-00-11_out.root/
user.prose.341551.aMcAtNloPythia8EvtGen.DAOD_TOPQ1.e4336_a766_a821_r7676_p2669.HtX4Tops_00-00-11_out.root/
user.prose.341552.aMcAtNloPythia8EvtGen.DAOD_TOPQ1.e4336_a766_a821_r7676_p2669.HtX4Tops_00-00-11_out.root/
user.prose.341554.aMcAtNloPythia8EvtGen.DAOD_TOPQ1.e4336_a766_a821_r7676_p2669.HtX4Tops_00-00-11_out.root/
user.prose.341555.aMcAtNloPythia8EvtGen.DAOD_TOPQ1.e4336_a766_a821_r7676_p2669.HtX4Tops_00-00-11_out.root/
user.prose.341556.aMcAtNloPythia8EvtGen.DAOD_TOPQ1.e4336_a766_a821_r7676_p2669.HtX4Tops_00-00-11_out.root/
user.prose.341557.aMcAtNloPythia8EvtGen.DAOD_TOPQ1.e4336_a766_a821_r7676_p2669.HtX4Tops_00-00-11_out.root/
user.prose.341558.aMcAtNloPythia8EvtGen.DAOD_TOPQ1.e4336_a766_a821_r7676_p2669.HtX4Tops_00-00-11_out.root/
user.prose.344066.MadGraphPythia8EvtGen.DAOD_TOPQ1.e5075_s2726_r7772_r7676_p2669.HtX4Tops_00-00-11_out.root/
user.prose.344074.MadGraphPythia8EvtGen.DAOD_TOPQ1.e5052_s2726_r7772_r7676_p2669.HtX4Tops_00-00-11_out.root/
user.prose.344066.MadGraphPythia8EvtGen.DAOD_TOPQ1.e5075_a766_a821_r7676_p2669.HtX4Tops_00-00-11_out.root/
user.prose.344068.MadGraphPythia8EvtGen.DAOD_TOPQ1.e5075_a766_a821_r7676_p2669.HtX4Tops_00-00-11_out.root/
user.prose.344072.MadGraphPythia8EvtGen.DAOD_TOPQ1.e5075_a766_a821_r7676_p2669.HtX4Tops_00-00-11_out.root/
user.prose.344073.MadGraphPythia8EvtGen.DAOD_TOPQ1.e5075_a766_a821_r7676_p2669.HtX4Tops_00-00-11_out.root/
user.prose.344074.MadGraphPythia8EvtGen.DAOD_TOPQ1.e5052_a766_a821_r7676_p2669.HtX4Tops_00-00-11_out.root/
user.prose.344076.MadGraphPythia8EvtGen.DAOD_TOPQ1.e5052_a766_a821_r7676_p2669.HtX4Tops_00-00-11_out.root/
user.prose.344079.MadGraphPythia8EvtGen.DAOD_TOPQ1.e5052_a766_a821_r7676_p2669.HtX4Tops_00-00-11_out.root/
user.prose.344080.MadGraphPythia8EvtGen.DAOD_TOPQ1.e5052_a766_a821_r7676_p2669.HtX4Tops_00-00-11_out.root/
user.prose.344081.MadGraphPythia8EvtGen.DAOD_TOPQ1.e5052_a766_a821_r7676_p2669.HtX4Tops_00-00-11_out.root/
